1488586357,1497,1493,1493,1499,1182,1497,1493,1493,1499,1182,-0.000000,0.000000,0.000000,0.000000,0.000000,0.000000,-0.000006,0.000000
1488686386,1497,1493,1493,1500,1181,1497,1493,1493,1500,1181,-0.000000,0.000000,0.000000,0.000000,0.000000,0.000000,-0.000006,0.000000
1488786403,1497,1493,1492,1499,1181,1497,1493,1492,1499,1181,-0.000000,0.000000,0.000000,0.000000,0.000000,0.000000,-0.000006,0.000000
1488886422,1497,1493,1492,1500,1182,1497,1493,1492,1500,1182,-0.000000,0.000000,0.000000,0.000000,0.000000,0.000000,-0.000006,0.000000
1488986452,1497,1492,1493,1500,1182,1497,1492,1493,1500,1182,-0.000000,0.000000,0.000000,0.000000,0.000000,0.000000,-0.000006,0.000000
1489086483,1497,1493,1492,1499,1181,1497,1493,1492,1499,1181,-0.000000,0.000000,0.000000,0.000000,0.000000,0.000000,-0.000006,0.000000
1489186500,1497,1492,1492,1499,1181,1497,1492,1492,1499,1181,-0.000000,0.000000,0.000000,0.000000,0.000000,0.000000,-0.000006,0.000000
1489286506,1497,1493,1493,1499,1181,1497,1493,1493,1499,1181,-0.000000,0.000000,0.000000,0.000000,0.000000,0.000000,-0.000006,0.000000
1489386534,1497,1492,1493,1499,1182,1497,1492,1493,1499,1182,-0.000000,0.000000,0.000000,0.000000,0.000000,0.000000,-0.000006,0.000000
1489486565,1497,1493,1493,1500,1182,1497,1493,1493,1500,1182,-0.000000,0.000000,0.000000,0.000000,0.000000,0.000000,-0.000006,0.000000
1489586584,1497,1493,1493,1499,1181,1497,1493,1493,1499,1181,-0.000000,0.000000,0.000000,0.000000,0.000000,0.000000,-0.000006,0.000000
1489686592,1497,1492,1493,1499,1181,1497,1492,1493,1499,1181,-0.000000,0.000000,0.000000,0.000000,0.000000,0.000000,-0.000006,0.000000
1489786594,1497,1493,1493,1500,1181,1497,1493,1493,1500,1181,-0.000000,0.000000,0.000000,0.000000,0.000000,0.000000,-0.000006,0.000000
1489886618,1497,1493,1493,1500,1182,1497,1493,1493,1500,1182,-0.000000,0.000000,0.000000,0.000000,0.000000,0.000000,-0.000006,0.000000
1489986620,1497,1493,1493,1500,1182,1497,1493,1493,1500,1182,-0.000000,0.000000,0.000000,0.000000,0.000000,0.000000,-0.000006,0.000000
1570505462,1497,1492,1492,1499,1181,1497,1492,1492,1499,1181,-0.000001,0.000000,0.000000,0.000000,0.000000,0.000000,-0.000006,0.000000
1570605490,1497,1492,1492,1499,1182,1497,1492,1492,1499,1182,-0.000001,0.000000,0.000000,0.000000,0.000000,0.000000,-0.000006,0.000000
1570705519,1497,1492,1492,1499,1182,1497,1492,1492,1499,1182,-0.000001,0.000000,0.000000,0.000000,0.000000,0.000000,-0.000006,0.000000
1570805533,1497,1492,1492,1499,1181,1497,1492,1492,1499,1181,-0.000001,0.000000,0.000000,0.000000,0.000000,0.000000,-0.000006,0.000000
1570905566,1497,1492,1492,1499,1181,1497,1492,1492,1499,1181,-0.000001,0.000000,0.000000,0.000000,0.000000,0.000000,-0.000006,0.000000
1571005594,1497,1492,1492,1499,1181,1497,1492,1492,1499,1181,-0.000001,0.000000,0.000000,0.000000,0.000000,0.000000,-0.000006,0.000000
1571105605,1497,1493,1492,1499,1182,1497,1493,1492,1499,1182,-0.000001,0.000000,0.000000,0.000000,0.000000,0.000000,-0.000006,0.000000
1571205650,1497,1492,1493,1499,1181,1497,1492,1493,1499,1181,-0.000001,0.000000,0.000000,0.000000,0.000000,0.000000,-0.000006,0.000000
1571305659,1497,1492,1492,1499,1181,1497,1492,1492,1499,1181,-0.000001,0.000000,0.000000,0.000000,0.000000,0.000000,-0.000006,0.000000
1571405689,1497,1492,1493,1499,1182,1497,1492,1493,1499,1182,-0.000001,0.000000,0.000000,0.000000,0.000000,0.000000,-0.000006,0.000000
1571505717,1497,1492,1492,1499,1182,1497,1492,1492,1499,1182,-0.000001,0.000000,0.000000,0.000000,0.000000,0.000000,-0.000006,0.000000
1571605724,1497,1492,1492,1499,1182,1497,1492,1492,1499,1182,-0.000001,0.000000,0.000000,0.000000,0.000000,0.000000,-0.000006,0.000000
1571705758,1497,1493,1492,1499,1182,1497,1493,1492,1499,1182,-0.000001,0.000000,0.000000,0.000000,0.000000,0.000000,-0.000006,0.000000
1571805784,1497,1492,1492,1499,1182,1497,1492,1492,1499,1182,-0.000001,0.000000,0.000000,0.000000,0.000000,0.000000,-0.000006,0.000000
1571905814,1497,1492,1492,1499,1182,1497,1492,1492,1499,1182,-0.000001,0.000000,0.000000,0.000000,0.000000,0.000000,-0.000006,0.000000
1572005842,1497,1493,1492,1499,1181,1497,1493,1492,1499,1181,-0.000001,0.000000,0.000000,0.000000,0.000000,0.000000,-0.000006,0.000000
1572105849,1497,1492,1492,1499,1182,1497,1492,1492,1499,1182,-0.000001,0.000000,0.000000,0.000000,0.000000,0.000000,-0.000006,0.000000
1572205860,1497,1492,1492,1499,1182,1497,1492,1492,1499,1182,-0.000001,0.000000,0.000000,0.000000,0.000000,0.000000,-0.000006,0.000000
1572305893,1497,1492,1492,1499,1181,1497,1492,1492,1499,1181,-0.000001,0.000000,0.000000,0.000000,0.000000,0.000000,-0.000006,0.000000
1572405895,1497,1492,1492,1499,1181,1497,1492,1492,1499,1181,-0.000001,0.000000,0.000000,0.000000,0.000000,0.000000,-0.000006,0.000000
1572505925,1497,1492,1492,1499,1182,1497,1492,1492,1499,1182,-0.000001,0.000000,0.000000,0.000000,0.000000,0.000000,-0.000006,0.000000
1572605927,1497,1492,1492,1499,1182,1497,1492,1492,1499,1182,-0.000001,0.000000,0.000000,0.000000,0.000000,0.000000,-0.000006,0.000000
1572705929,1497,1492,1491,1499,1181,1497,1492,1491,1499,1181,-0.000001,0.000000,0.000000,0.000000,0.000000,0.000000,-0.000006,0.000000
1572805949,1497,1492,1490,1499,1182,1497,1492,1490,1499,1182,-0.000001,0.000000,0.000000,0.000000,0.000000,0.000000,-0.000006,0.000000
1572905958,1497,1492,1492,1499,1181,1497,1492,1492,1499,1181,-0.000001,0.000000,0.000000,0.000000,0.000000,0.000000,-0.000006,0.000000
1573005959,1497,1492,1492,1499,1182,1497,1492,1492,1499,1182,-0.000001,0.000000,0.000000,0.000000,0.000000,0.000000,-0.000006,0.000000
1573105961,1497,1492,1492,1499,1181,1497,1492,1492,1499,1181,-0.000001,0.000000,0.000000,0.000000,0.000000,0.000000,-0.000006,0.000000
1573206019,1497,1495,1491,1497,1182,1497,1495,1491,1497,1182,-0.000001,0.000000,0.000000,0.000000,0.000000,0.000000,-0.000006,0.000000
1573306046,1464,1569,1398,1431,1182,1464,1569,1398,1431,1182,-0.000001,0.000000,0.000000,0.000000,0.000000,0.000000,-0.000006,0.000000
1573406050,1285,1676,1259,1276,1181,1285,1676,1259,1276,1181,-0.000001,0.000000,0.000000,0.000000,0.000000,0.000000,-0.000006,0.000000
1573506068,1114,1823,1074,1139,1182,1114,1823,1074,1139,1182,-0.000001,0.000000,0.000000,0.000000,0.000000,0.000000,-0.000006,0.000000
1573606097,1061,1911,1074,1081,1181,1061,1911,1074,1081,1181,-0.000001,0.000000,0.000000,0.000000,0.000000,0.000000,-0.000006,0.000000
1573706107,1061,1912,1074,1081,1182,1061,1912,1074,1081,1182,-0.000001,0.000000,0.000000,0.000000,0.000000,0.000000,-0.000006,0.000000
1573806115,1061,1912,1074,1081,1182,1061,1912,1074,1081,1182,-0.000001,0.000000,0.000000,0.000000,0.000000,0.000000,-0.000006,0.000000
1573906151,1061,1912,1075,1081,1181,1061,1912,1075,1081,1181,-0.000001,0.000000,0.000000,0.000000,0.000000,0.000000,-0.000006,0.000000
1574006159,1061,1913,1074,1081,1181,1061,1913,1074,1081,1181,-0.000001,0.000000,0.000000,0.000000,0.000000,0.000000,-0.000006,0.000000
1574106163,1061,1913,1074,1082,1181,1061,1913,1074,1082,1181,-0.000001,0.000000,0.000000,0.000000,0.000000,0.000000,-0.000006,0.000000
1574206197,1269,1745,1332,1266,1181,1269,1745,1332,1266,1181,-0.000001,0.000000,0.000000,0.000000,0.000000,0.000000,-0.000006,0.000000
1574306219,1497,1492,1491,1498,1182,1497,1492,1491,1498,1182,-0.000001,0.000000,0.000000,0.000000,0.000000,0.000000,-0.000006,0.000000
1574406245,1497,1492,1493,1498,1182,1497,1492,1493,1498,1182,-0.000001,0.000000,0.000000,0.000000,0.000000,0.000000,-0.000006,0.000000
1574506253,1497,1492,1492,1498,1182,1497,1492,1492,1498,1182,-0.000001,0.000000,0.000000,0.000000,0.000000,0.000000,-0.000006,0.000000
1574606280,1497,1492,1492,1498,1182,1497,1492,1492,1498,1182,-0.000001,0.000000,0.000000,0.000000,0.000000,0.000000,-0.000006,0.000000
1574706282,1497,1493,1493,1498,1182,1497,1493,1493,1498,1182,-0.000001,0.000000,0.000000,0.000000,0.000000,0.000000,-0.000006,0.000000
1574806294,1497,1492,1492,1498,1181,1497,1492,1492,1498,1181,-0.000001,0.000000,0.000000,0.000000,0.000000,0.000000,-0.000006,0.000000
1574906295,1497,1492,1492,1498,1182,1497,1492,1492,1498,1182,-0.000001,0.000000,0.000000,0.000000,0.000000,0.000000,-0.000006,0.000000
1575006308,1497,1492,1492,1498,1182,1497,1492,1492,1498,1182,-0.000001,0.000000,0.000000,0.000000,0.000000,0.000000,-0.000006,0.000000
1575106343,1497,1493,1493,1498,1181,1497,1493,1493,1498,1181,-0.000001,0.000000,0.000000,0.000000,0.000000,0.000000,-0.000006,0.000000
1575206377,1497,1492,1492,1498,1182,1497,1492,1492,1498,1182,-0.000001,0.000000,0.000000,0.000000,0.000000,0.000000,-0.000006,0.000000
1575306385,1497,1493,1492,1498,1181,1497,1493,1492,1498,1181,-0.000001,0.000000,0.000000,0.000000,0.000000,0.000000,-0.000006,0.000000
1575406413,1497,1492,1492,1498,1181,1497,1492,1492,1498,1181,-0.000001,0.000000,0.000000,0.000000,0.000000,0.000000,-0.000006,0.000000
1575506431,1497,1493,1492,1498,1181,1497,1493,1492,1498,1181,-0.000001,0.000000,0.000000,0.000000,0.000000,0.000000,-0.000006,0.000000
1575606434,1497,1492,1492,1498,1181,1497,1492,1492,1498,1181,-0.000001,0.000000,0.000000,0.000000,0.000000,0.000000,-0.000006,0.000000
1575706470,1497,1492,1492,1498,1182,1497,1492,1492,1498,1182,-0.000001,0.000000,0.000000,0.000000,0.000000,0.000000,-0.000006,0.000000
1575806492,1497,1492,1492,1498,1181,1497,1492,1492,1498,1181,-0.000001,0.000000,0.000000,0.000000,0.000000,0.000000,-0.000006,0.000000
1575906504,1497,1492,1492,1498,1181,1497,1492,1492,1498,1181,-0.000001,0.000000,0.000000,0.000000,0.000000,0.000000,-0.000006,0.000000
1576006508,1497,1492,1493,1498,1182,1497,1492,1493,1498,1182,-0.000001,0.000000,0.000000,0.000000,0.000000,0.000000,-0.000006,0.000000
1576106509,1497,1492,1492,1498,1182,1497,1492,1492,1498,1182,-0.000001,0.000000,0.000000,0.000000,0.000000,0.000000,-0.000006,0.000000
1576206545,1497,1492,1492,1498,1181,1497,1492,1492,1498,1181,-0.000001,0.000000,0.000000,0.000000,0.000000,0.000000,-0.000006,0.000000
1576306562,1497,1492,1492,1498,1181,1497,1492,1492,1498,1181,-0.000001,0.000000,0.000000,0.000000,0.000000,0.000000,-0.000006,0.000000
1576406566,1497,1492,1493,1498,1181,1497,1492,1493,1498,1181,-0.000001,0.000000,0.000000,0.000000,0.000000,0.000000,-0.000006,0.000000
1576506594,1497,1492,1493,1498,1182,1497,1492,1493,1498,1182,-0.000001,0.000000,0.000000,0.000000,0.000000,0.000000,-0.000006,0.000000
1576606624,1497,1492,1492,1498,1182,1497,1492,1492,1498,1182,-0.000001,0.000000,0.000000,0.000000,0.000000,0.000000,-0.000006,0.000000
1576706644,1497,1492,1492,1498,1181,1497,1492,1492,1498,1181,-0.000001,0.000000,0.000000,0.000000,0.000000,0.000000,-0.000006,0.000000
1576806659,1497,1492,1492,1498,1181,1497,1492,1492,1498,1181,-0.000001,0.000000,0.000000,0.000000,0.000000,0.000000,-0.000006,0.000000
1576906666,1498,1492,1493,1498,1181,1498,1492,1493,1498,1181,-0.000001,0.000000,0.000000,0.000000,0.000000,0.000000,-0.000006,0.000000
1577006670,1504,1493,1492,1498,1182,1504,1493,1492,1498,1182,-0.000001,0.000000,0.000000,0.000000,0.000000,0.000000,-0.000006,0.000000
1577106685,1535,1493,1492,1498,1181,1535,1493,1492,1498,1181,-0.000001,0.000000,0.000000,0.000000,0.000000,0.000000,-0.000006,0.000000
1577206713,1557,1492,1493,1498,1182,1557,1492,1493,1498,1182,-0.000001,0.000000,0.000000,0.000000,0.000000,0.000000,-0.000006,0.000000
1577306725,1576,1492,1492,1498,1181,1576,1492,1492,1498,1181,-0.000001,0.000000,0.000000,0.000000,0.000000,0.000000,-0.000006,0.000000
1577406731,1585,1492,1492,1498,1182,1585,1492,1492,1498,1182,-0.000001,0.000000,0.000000,0.000000,0.000000,0.000000,-0.000006,0.000000
1577506739,1590,1492,1492,1498,1182,1590,1492,1492,1498,1182,-0.000001,0.000000,0.000000,0.000000,0.000000,0.000000,-0.000006,0.000000
1577606744,1600,1493,1493,1498,1181,1600,1493,1493,1498,1181,-0.000001,0.000000,0.000000,0.000000,0.000000,0.000000,-0.000006,0.000000
1577706762,1605,1492,1493,1498,1182,1605,1492,1493,1498,1182,-0.000001,0.000000,0.000000,0.000000,0.000000,0.000000,-0.000006,0.000000
1577806797,1614,1492,1492,1498,1181,1614,1492,1492,1498,1181,-0.000001,0.000000,0.000000,0.000000,0.000000,0.000000,-0.000006,0.000000
1577906818,1618,1492,1493,1498,1182,1618,1492,1493,1498,1182,-0.000001,0.000000,0.000000,0.000000,0.000000,0.000000,-0.000006,0.000000
1578006824,1623,1492,1492,1498,1182,1623,1492,1492,1498,1182,-0.000001,0.000000,0.000000,0.000000,0.000000,0.000000,-0.000006,0.000000
1578106851,1629,1492,1492,1498,1182,1629,1492,1492,1498,1182,-0.000001,0.000000,0.000000,0.000000,0.000000,0.000000,-0.000006,0.000000
1578206878,1637,1493,1492,1498,1182,1637,1493,1492,1498,1182,-0.000001,0.000000,0.000000,0.000000,0.000000,0.000000,-0.000006,0.000000
1578306894,1637,1493,1492,1498,1182,1637,1493,1492,1498,1182,-0.000001,0.000000,0.000000,0.000000,0.000000,0.000000,-0.000006,0.000000
1578406897,1642,1492,1492,1498,1181,1642,1492,1492,1498,1181,-0.000001,0.000000,0.000000,0.000000,0.000000,0.000000,-0.000006,0.000000
1578506898,1650,1493,1492,1498,1181,1650,1493,1492,1498,1181,-0.000001,0.000000,0.000000,0.000000,0.000000,0.000000,-0.000006,0.000000
1578606924,1656,1492,1492,1498,1182,1656,1492,1492,1498,1182,-0.000001,0.000000,0.000000,0.000000,0.000000,0.000000,-0.000006,0.000000
1578706939,1660,1492,1492,1498,1182,1660,1492,1492,1498,1182,-0.000001,0.000000,0.000000,0.000000,0.000000,0.000000,-0.000006,0.000000
1578806955,1661,1492,1492,1498,1181,1661,1492,1492,1498,1181,-0.000001,0.000000,0.000000,0.000000,0.000000,0.000000,-0.000006,0.000000
1578906989,1661,1492,1493,1498,1181,1661,1492,1493,1498,1181,-0.000001,0.000000,0.000000,0.000000,0.000000,0.000000,-0.000006,0.000000
1579007013,1666,1492,1492,1498,1181,1666,1492,1492,1498,1181,-0.000001,0.000000,0.000000,0.000000,0.000000,0.000000,-0.000006,0.000000
1579107014,1665,1492,1492,1498,1181,1665,1492,1492,1498,1181,-0.000001,0.000000,0.000000,0.000000,0.000000,0.000000,-0.000006,0.000000
1579207037,1670,1492,1492,1498,1181,1670,1492,1492,1498,1181,-0.000001,0.000000,0.000000,0.000000,0.000000,0.000000,-0.000006,0.000000
1579307049,1673,1492,1492,1498,1181,1673,1492,1492,1498,1181,-0.000001,0.000000,0.000000,0.000000,0.000000,0.000000,-0.000006,0.000000
1579407077,1673,1492,1492,1499,1182,1673,1492,1492,1499,1182,-0.000001,0.000000,0.000000,0.000000,0.000000,0.000000,-0.000006,0.000000
1579507081,1673,1492,1492,1498,1182,1673,1492,1492,1498,1182,-0.000001,0.000000,0.000000,0.000000,0.000000,0.000000,-0.000006,0.000000
1579607099,1673,1492,1492,1499,1182,1673,1492,1492,1499,1182,-0.000001,0.000000,0.000000,0.000000,0.000000,0.000000,-0.000006,0.000000
1579707138,1672,1492,1492,1498,1181,1672,1492,1492,1498,1181,-0.000001,0.000000,0.000000,0.000000,0.000000,0.000000,-0.000006,0.000000
1579807162,1673,1492,1492,1498,1182,1673,1492,1492,1498,1182,-0.000001,0.000000,0.000000,0.000000,0.000000,0.000000,-0.000006,0.000000
1579907179,1675,1492,1492,1498,1181,1675,1492,1492,1498,1181,-0.000001,0.000000,0.000000,0.000000,0.000000,0.000000,-0.000006,0.000000
1580007208,1677,1492,1492,1498,1182,1677,1492,1492,1498,1182,-0.000001,0.000000,0.000000,0.000000,0.000000,0.000000,-0.000006,0.000000
1580107211,1677,1492,1492,1498,1181,1677,1492,1492,1498,1181,-0.000001,0.000000,0.000000,0.000000,0.000000,0.000000,-0.000006,0.000000
1580207225,1677,1492,1492,1498,1181,1677,1492,1492,1498,1181,-0.000001,0.000000,0.000000,0.000000,0.000000,0.000000,-0.000006,0.000000
1580307275,1679,1493,1493,1498,1181,1679,1493,1493,1498,1181,-0.000001,0.000000,0.000000,0.000000,0.000000,0.000000,-0.000006,0.000000
1580407291,1679,1492,1493,1498,1182,1679,1492,1493,1498,1182,-0.000001,0.000000,0.000000,0.000000,0.000000,0.000000,-0.000006,0.000000
1580507300,1682,1492,1492,1498,1182,1682,1492,1492,1498,1182,-0.000001,0.000000,0.000000,0.000000,0.000000,0.000000,-0.000006,0.000000
1580607320,1682,1492,1492,1498,1181,1682,1492,1492,1498,1181,-0.000001,0.000000,0.000000,0.000000,0.000000,0.000000,-0.000006,0.000000
1580707354,1682,1493,1492,1498,1181,1682,1493,1492,1498,1181,-0.000001,0.000000,0.000000,0.000000,0.000000,0.000000,-0.000006,0.000000
1580807390,1683,1492,1492,1498,1182,1683,1492,1492,1498,1182,-0.000001,0.000000,0.000000,0.000000,0.000000,0.000000,-0.000006,0.000000
1580907402,1678,1492,1492,1498,1181,1678,1492,1492,1498,1181,-0.000001,0.000000,0.000000,0.000000,0.000000,0.000000,-0.000006,0.000000
1581007435,1672,1492,1492,1498,1181,1672,1492,1492,1498,1181,-0.000001,0.000000,0.000000,0.000000,0.000000,0.000000,-0.000006,0.000000
1581107463,1668,1493,1493,1498,1182,1668,1493,1493,1498,1182,-0.000001,0.000000,0.000000,0.000000,0.000000,0.000000,-0.000006,0.000000
1581207496,1647,1492,1492,1497,1182,1647,1492,1492,1497,1182,-0.000001,0.000000,0.000000,0.000000,0.000000,0.000000,-0.000006,0.000000
1581307502,1565,1492,1493,1497,1182,1565,1492,1493,1497,1182,-0.000001,0.000000,0.000000,0.000000,0.000000,0.000000,-0.000006,0.000000
1581407524,1497,1493,1492,1497,1181,1497,1493,1492,1497,1181,-0.000001,0.000000,0.000000,0.000000,0.000000,0.000000,-0.000006,0.000000
1581507540,1497,1493,1493,1497,1182,1497,1493,1493,1497,1182,-0.000001,0.000000,0.000000,0.000000,0.000000,0.000000,-0.000006,0.000000
1581607560,1497,1493,1493,1497,1182,1497,1493,1493,1497,1182,-0.000001,0.000000,0.000000,0.000000,0.000000,0.000000,-0.000006,0.000000
1581707590,1497,1493,1493,1497,1182,1497,1493,1493,1497,1182,-0.000001,0.000000,0.000000,0.000000,0.000000,0.000000,-0.000006,0.000000
1581807600,1497,1493,1493,1497,1182,1497,1493,1493,1497,1182,-0.000001,0.000000,0.000000,0.000000,0.000000,0.000000,-0.000006,0.000000
1581907627,1497,1493,1493,1497,1182,1497,1493,1493,1497,1182,-0.000001,0.000000,0.000000,0.000000,0.000000,0.000000,-0.000006,0.000000
1582007646,1497,1493,1493,1497,1181,1497,1493,1493,1497,1181,-0.000001,0.000000,0.000000,0.000000,0.000000,0.000000,-0.000006,0.000000
1582107676,1497,1492,1493,1498,1182,1497,1492,1493,1498,1182,-0.000001,0.000000,0.000000,0.000000,0.000000,0.000000,-0.000006,0.000000
1582207680,1497,1492,1492,1498,1181,1497,1492,1492,1498,1181,-0.000001,0.000000,0.000000,0.000000,0.000000,0.000000,-0.000006,0.000000
1582307695,1497,1492,1491,1498,1181,1497,1492,1491,1498,1181,-0.000001,0.000000,0.000000,0.000000,0.000000,0.000000,-0.000006,0.000000
1582407703,1497,1497,1491,1498,1181,1497,1497,1491,1498,1181,-0.000001,0.000000,0.000000,0.000000,0.000000,0.000000,-0.000006,0.000000
1582507730,1497,1506,1491,1498,1181,1497,1506,1491,1498,1181,-0.000001,0.000000,0.000000,0.000000,0.000000,0.000000,-0.000006,0.000000
1582607741,1497,1496,1492,1498,1181,1497,1496,1492,1498,1181,-0.000001,0.000000,0.000000,0.000000,0.000000,0.000000,-0.000006,0.000000
1582707761,1497,1502,1492,1498,1181,1497,1502,1492,1498,1181,-0.000001,0.000000,0.000000,0.000000,0.000000,0.000000,-0.000006,0.000000
1582807774,1497,1531,1491,1498,1182,1497,1531,1491,1498,1182,-0.000001,0.000000,0.000000,0.000000,0.000000,0.000000,-0.000006,0.000000
1582907806,1497,1531,1491,1498,1182,1497,1531,1491,1498,1182,-0.000001,0.000000,0.000000,0.000000,0.000000,0.000000,-0.000006,0.000000
1583007829,1497,1548,1491,1498,1181,1497,1548,1491,1498,1181,-0.000001,0.000000,0.000000,0.000000,0.000000,0.000000,-0.000006,0.000000
1583107839,1497,1543,1491,1498,1181,1497,1543,1491,1498,1181,-0.000001,0.000000,0.000000,0.000000,0.000000,0.000000,-0.000006,0.000000
1583207855,1497,1536,1491,1498,1182,1497,1536,1491,1498,1182,-0.000001,0.000000,0.000000,0.000000,0.000000,0.000000,-0.000006,0.000000
1583307862,1497,1555,1491,1498,1181,1497,1555,1491,1498,1181,-0.000001,0.000000,0.000000,0.000000,0.000000,0.000000,-0.000006,0.000000
1583407867,1497,1553,1491,1498,1182,1497,1553,1491,1498,1182,-0.000001,0.000000,0.000000,0.000000,0.000000,0.000000,-0.000006,0.000000
1583507886,1497,1553,1491,1498,1181,1497,1553,1491,1498,1181,-0.000001,0.000000,0.000000,0.000000,0.000000,0.000000,-0.000006,0.000000
1583607899,1497,1492,1491,1497,1182,1497,1492,1491,1497,1182,-0.000001,0.000000,0.000000,0.000000,0.000000,0.000000,-0.000006,0.000000
1583707926,1497,1492,1491,1497,1182,1497,1492,1491,1497,1182,-0.000001,0.000000,0.000000,0.000000,0.000000,0.000000,-0.000006,0.000000
1583807963,1497,1492,1491,1498,1182,1497,1492,1491,1498,1182,-0.000001,0.000000,0.000000,0.000000,0.000000,0.000000,-0.000006,0.000000
1583907977,1497,1492,1491,1498,1182,1497,1492,1491,1498,1182,-0.000001,0.000000,0.000000,0.000000,0.000000,0.000000,-0.000006,0.000000
1584007982,1497,1492,1491,1498,1182,1497,1492,1491,1498,1182,-0.000001,0.000000,0.000000,0.000000,0.000000,0.000000,-0.000006,0.000000
1584107989,1497,1492,1491,1500,1181,1497,1492,1491,1500,1181,-0.000001,0.000000,0.000000,0.000000,0.000000,0.000000,-0.000006,0.000000
1584207995,1497,1493,1478,1499,1181,1497,1493,1478,1499,1181,-0.000001,0.000000,0.000000,0.000000,0.000000,0.000000,-0.000006,0.000000
1584308017,1497,1502,1455,1499,1181,1497,1502,1455,1499,1181,-0.000001,0.000000,0.000000,0.000000,0.000000,0.000000,-0.000006,0.000000
1584408040,1497,1512,1438,1499,1181,1497,1512,1438,1499,1181,-0.000001,0.000000,0.000000,0.000000,0.000000,0.000000,-0.000006,0.000000
1584508060,1497,1507,1454,1499,1181,1497,1507,1454,1499,1181,-0.000001,0.000000,0.000000,0.000000,0.000000,0.000000,-0.000006,0.000000
1584608074,1497,1505,1455,1499,1182,1497,1505,1455,1499,1182,-0.000001,0.000000,0.000000,0.000000,0.000000,0.000000,-0.000006,0.000000
1584708109,1497,1506,1455,1499,1181,1497,1506,1455,1499,1181,-0.000001,0.000000,0.000000,0.000000,0.000000,0.000000,-0.000006,0.000000
1584808141,1497,1495,1468,1499,1181,1497,1495,1468,1499,1181,-0.000001,0.000000,0.000000,0.000000,0.000000,0.000000,-0.000006,0.000000
1584908157,1497,1496,1465,1499,1181,1497,1496,1465,1499,1181,-0.000001,0.000000,0.000000,0.000000,0.000000,0.000000,-0.000006,0.000000
1585008186,1497,1492,1474,1499,1181,1497,1492,1474,1499,1181,-0.000001,0.000000,0.000000,0.000000,0.000000,0.000000,-0.000006,0.000000
1585108209,1492,1492,1484,1499,1181,1492,1492,1484,1499,1181,-0.000001,0.000000,0.000000,0.000000,0.000000,0.000000,-0.000006,0.000000
1585208228,1476,1492,1485,1499,1182,1476,1492,1485,1499,1182,-0.000001,0.000000,0.000000,0.000000,0.000000,0.000000,-0.000006,0.000000
1585308249,1465,1492,1485,1499,1182,1465,1492,1485,1499,1182,-0.000001,0.000000,0.000000,0.000000,0.000000,0.000000,-0.000006,0.000000
1585408254,1450,1492,1487,1499,1181,1450,1492,1487,1499,1181,-0.000001,0.000000,0.000000,0.000000,0.000000,0.000000,-0.000006,0.000000
1585508282,1445,1492,1490,1499,1181,1445,1492,1490,1499,1181,-0.000001,0.000000,0.000000,0.000000,0.000000,0.000000,-0.000006,0.000000
1585608304,1438,1492,1490,1499,1182,1438,1492,1490,1499,1182,-0.000001,0.000000,0.000000,0.000000,0.000000,0.000000,-0.000006,0.000000
1585708316,1437,1492,1491,1499,1181,1437,1492,1491,1499,1181,-0.000001,0.000000,0.000000,0.000000,0.000000,0.000000,-0.000006,0.000000
1585808321,1427,1493,1492,1499,1181,1427,1493,1492,1499,1181,-0.000001,0.000000,0.000000,0.000000,0.000000,0.000000,-0.000006,0.000000
1585908346,1421,1492,1491,1500,1182,1421,1492,1491,1500,1182,-0.000001,0.000000,0.000000,0.000000,0.000000,0.000000,-0.000006,0.000000
1586008366,1430,1492,1491,1499,1182,1430,1492,1491,1499,1182,-0.000001,0.000000,0.000000,0.000000,0.000000,0.000000,-0.000006,0.000000
1586108370,1464,1492,1491,1499,1182,1464,1492,1491,1499,1182,-0.000001,0.000000,0.000000,0.000000,0.000000,0.000000,-0.000006,0.000000
1586208388,1497,1492,1491,1499,1181,1497,1492,1491,1499,1181,-0.000001,0.000000,0.000000,0.000000,0.000000,0.000000,-0.000006,0.000000
1586308405,1497,1492,1491,1499,1182,1497,1492,1491,1499,1182,-0.000001,0.000000,0.000000,0.000000,0.000000,0.000000,-0.000006,0.000000
1586408442,1497,1492,1491,1499,1182,1497,1492,1491,1499,1182,-0.000001,0.000000,0.000000,0.000000,0.000000,0.000000,-0.000006,0.000000
1586508452,1497,1493,1491,1499,1181,1497,1493,1491,1499,1181,-0.000001,0.000000,0.000000,0.000000,0.000000,0.000000,-0.000006,0.000000
1586608485,1497,1492,1491,1499,1182,1497,1492,1491,1499,1182,-0.000001,0.000000,0.000000,0.000000,0.000000,0.000000,-0.000006,0.000000
1586708518,1497,1492,1491,1499,1182,1497,1492,1491,1499,1182,-0.000001,0.000000,0.000000,0.000000,0.000000,0.000000,-0.000006,0.000000
1586808551,1497,1492,1491,1499,1182,1497,1492,1491,1499,1182,-0.000001,0.000000,0.000000,0.000000,0.000000,0.000000,-0.000006,0.000000
1586908562,1495,1493,1491,1499,1182,1495,1493,1491,1499,1182,-0.000001,0.000000,0.000000,0.000000,0.000000,0.000000,-0.000006,0.000000
1587008573,1476,1492,1491,1499,1181,1476,1492,1491,1499,1181,-0.000001,0.000000,0.000000,0.000000,0.000000,0.000000,-0.000006,0.000000
1587108591,1464,1492,1491,1499,1182,1464,1492,1491,1499,1182,-0.000001,0.000000,0.000000,0.000000,0.000000,0.000000,-0.000006,0.000000
1587208619,1457,1492,1491,1499,1182,1457,1492,1491,1499,1182,-0.000001,0.000000,0.000000,0.000000,0.000000,0.000000,-0.000006,0.000000
1587308648,1452,1492,1491,1499,1182,1452,1492,1491,1499,1182,-0.000001,0.000000,0.000000,0.000000,0.000000,0.000000,-0.000006,0.000000
1587408673,1448,1492,1491,1499,1181,1448,1492,1491,1499,1181,-0.000001,0.000000,0.000000,0.000000,0.000000,0.000000,-0.000006,0.000000
1587508674,1442,1492,1491,1499,1181,1442,1492,1491,1499,1181,-0.000001,0.000000,0.000000,0.000000,0.000000,0.000000,-0.000006,0.000000
1587608685,1440,1492,1491,1499,1182,1440,1492,1491,1499,1182,-0.000001,0.000000,0.000000,0.000000,0.000000,0.000000,-0.000006,0.000000
1587708702,1440,1492,1491,1499,1181,1440,1492,1491,1499,1181,-0.000001,0.000000,0.000000,0.000000,0.000000,0.000000,-0.000006,0.000000
1587808730,1448,1492,1479,1499,1182,1448,1492,1479,1499,1182,-0.000001,0.000000,0.000000,0.000000,0.000000,0.000000,-0.000006,0.000000
1587908732,1470,1492,1463,1499,1181,1470,1492,1463,1499,1181,-0.000001,0.000000,0.000000,0.000000,0.000000,0.000000,-0.000006,0.000000
1588008738,1484,1492,1455,1499,1182,1484,1492,1455,1499,1182,-0.000001,0.000000,0.000000,0.000000,0.000000,0.000000,-0.000006,0.000000
1588108749,1495,1495,1451,1499,1181,1495,1495,1451,1499,1181,-0.000001,0.000000,0.000000,0.000000,0.000000,0.000000,-0.000006,0.000000
1588208767,1497,1496,1433,1499,1181,1497,1496,1433,1499,1181,-0.000001,0.000000,0.000000,0.000000,0.000000,0.000000,-0.000006,0.000000
1588308800,1497,1496,1433,1499,1182,1497,1496,1433,1499,1182,-0.000001,0.000000,0.000000,0.000000,0.000000,0.000000,-0.000006,0.000000
1588408807,1497,1497,1425,1499,1182,1497,1497,1425,1499,1182,-0.000001,0.000000,0.000000,0.000000,0.000000,0.000000,-0.000006,0.000000
1588508821,1497,1508,1426,1499,1181,1497,1508,1426,1499,1181,-0.000001,0.000000,0.000000,0.000000,0.000000,0.000000,-0.000006,0.000000
1588608851,1497,1511,1439,1499,1181,1497,1511,1439,1499,1181,-0.000001,0.000000,0.000000,0.000000,0.000000,0.000000,-0.000006,0.000000
1588708855,1497,1496,1458,1499,1181,1497,1496,1458,1499,1181,-0.000001,0.000000,0.000000,0.000000,0.000000,0.000000,-0.000006,0.000000
1588808871,1497,1496,1468,1499,1181,1497,1496,1468,1499,1181,-0.000001,0.000000,0.000000,0.000000,0.000000,0.000000,-0.000006,0.000000
1588908883,1486,1495,1482,1499,1182,1486,1495,1482,1499,1182,-0.000001,0.000000,0.000000,0.000000,0.000000,0.000000,-0.000006,0.000000
1589008919,1480,1495,1491,1499,1182,1480,1495,1491,1499,1182,-0.000001,0.000000,0.000000,0.000000,0.000000,0.000000,-0.000006,0.000000
1589108955,1474,1507,1490,1499,1181,1474,1507,1490,1499,1181,-0.000001,0.000000,0.000000,0.000000,0.000000,0.000000,-0.000006,0.000000
1589208974,1476,1534,1476,1499,1182,1476,1534,1476,1499,1182,-0.000001,0.000000,0.000000,0.000000,0.000000,0.000000,-0.000006,0.000000
1589308989,1478,1534,1477,1499,1181,1478,1534,1477,1499,1181,-0.000001,0.000000,0.000000,0.000000,0.000000,0.000000,-0.000006,0.000000
1589409002,1483,1529,1479,1499,1181,1483,1529,1479,1499,1181,-0.000001,0.000000,0.000000,0.000000,0.000000,0.000000,-0.000006,0.000000
1589509023,1490,1492,1491,1499,1182,1490,1492,1491,1499,1182,-0.000001,0.000000,0.000000,0.000000,0.000000,0.000000,-0.000006,0.000000
1589609028,1495,1492,1491,1499,1181,1495,1492,1491,1499,1181,-0.000001,0.000000,0.000000,0.000000,0.000000,0.000000,-0.000006,0.000000
1589709035,1497,1507,1490,1499,1181,1497,1507,1490,1499,1181,-0.000001,0.000000,0.000000,0.000000,0.000000,0.000000,-0.000006,0.000000
1589809071,1495,1505,1490,1499,1181,1495,1505,1490,1499,1181,-0.000001,0.000000,0.000000,0.000000,0.000000,0.000000,-0.000006,0.000000
1589909090,1490,1503,1490,1499,1181,1490,1503,1490,1499,1181,-0.000001,0.000000,0.000000,0.000000,0.000000,0.000000,-0.000006,0.000000
1590009109,1487,1506,1490,1499,1182,1487,1506,1490,1499,1182,-0.000001,0.000000,0.000000,0.000000,0.000000,0.000000,-0.000006,0.000000
1590109124,1492,1506,1488,1499,1181,1492,1506,1488,1499,1181,-0.000001,0.000000,0.000000,0.000000,0.000000,0.000000,-0.000006,0.000000
1590209144,1483,1507,1485,1499,1181,1483,1507,1485,1499,1181,-0.000001,0.000000,0.000000,0.000000,0.000000,0.000000,-0.000006,0.000000
1590309180,1468,1507,1485,1499,1181,1468,1507,1485,1499,1181,-0.000001,0.000000,0.000000,0.000000,0.000000,0.000000,-0.000006,0.000000
1590409216,1452,1507,1485,1499,1182,1452,1507,1485,1499,1182,-0.000001,0.000000,0.000000,0.000000,0.000000,0.000000,-0.000006,0.000000
1590509247,1452,1507,1485,1499,1181,1452,1507,1485,1499,1181,-0.000001,0.000000,0.000000,0.000000,0.000000,0.000000,-0.000006,0.000000
1590609285,1445,1507,1485,1499,1181,1445,1507,1485,1499,1181,-0.000001,0.000000,0.000000,0.000000,0.000000,0.000000,-0.000006,0.000000
1590709295,1445,1507,1485,1499,1181,1445,1507,1485,1499,1181,-0.000001,0.000000,0.000000,0.000000,0.000000,0.000000,-0.000006,0.000000
1590809297,1442,1506,1485,1499,1182,1442,1506,1485,1499,1182,-0.000001,0.000000,0.000000,0.000000,0.000000,0.000000,-0.000006,0.000000
1590909332,1441,1507,1485,1499,1181,1441,1507,1485,1499,1181,-0.000001,0.000000,0.000000,0.000000,0.000000,0.000000,-0.000006,0.000000
1591009337,1442,1506,1485,1499,1182,1442,1506,1485,1499,1182,-0.000001,0.000000,0.000000,0.000000,0.000000,0.000000,-0.000006,0.000000
1591109338,1437,1506,1485,1499,1181,1437,1506,1485,1499,1181,-0.000001,0.000000,0.000000,0.000000,0.000000,0.000000,-0.000006,0.000000
1591209367,1436,1505,1485,1499,1182,1436,1505,1485,1499,1182,-0.000001,0.000000,0.000000,0.000000,0.000000,0.000000,-0.000006,0.000000
1591309368,1436,1505,1485,1499,1182,1436,1505,1485,1499,1182,-0.000001,0.000000,0.000000,0.000000,0.000000,0.000000,-0.000006,0.000000
1591409378,1434,1505,1485,1499,1181,1434,1505,1485,1499,1181,-0.000001,0.000000,0.000000,0.000000,0.000000,0.000000,-0.000006,0.000000
1591509402,1437,1505,1485,1499,1182,1437,1505,1485,1499,1182,-0.000001,0.000000,0.000000,0.000000,0.000000,0.000000,-0.000006,0.000000
1591609427,1442,1506,1485,1499,1181,1442,1506,1485,1499,1181,-0.000001,0.000000,0.000000,0.000000,0.000000,0.000000,-0.000006,0.000000
1591709442,1441,1506,1485,1499,1181,1441,1506,1485,1499,1181,-0.000001,0.000000,0.000000,0.000000,0.000000,0.000000,-0.000006,0.000000
1591809449,1440,1506,1485,1499,1181,1440,1506,1485,1499,1181,-0.000001,0.000000,0.000000,0.000000,0.000000,0.000000,-0.000006,0.000000
1591909474,1432,1505,1485,1499,1182,1432,1505,1485,1499,1182,-0.000001,0.000000,0.000000,0.000000,0.000000,0.000000,-0.000006,0.000000
1592009481,1427,1506,1485,1499,1181,1427,1506,1485,1499,1181,-0.000001,0.000000,0.000000,0.000000,0.000000,0.000000,-0.000006,0.000000
1592109506,1430,1505,1485,1499,1181,1430,1505,1485,1499,1181,-0.000001,0.000000,0.000000,0.000000,0.000000,0.000000,-0.000006,0.000000
1592209539,1440,1503,1485,1499,1181,1440,1503,1485,1499,1181,-0.000001,0.000000,0.000000,0.000000,0.000000,0.000000,-0.000006,0.000000
1592309564,1452,1496,1485,1499,1181,1452,1496,1485,1499,1181,-0.000001,0.000000,0.000000,0.000000,0.000000,0.000000,-0.000006,0.000000
1592409572,1497,1492,1491,1499,1181,1497,1492,1491,1499,1181,-0.000001,0.000000,0.000000,0.000000,0.000000,0.000000,-0.000006,0.000000
1592509599,1497,1492,1491,1500,1182,1497,1492,1491,1500,1182,-0.000001,0.000000,0.000000,0.000000,0.000000,0.000000,-0.000006,0.000000
1592609603,1497,1492,1490,1499,1181,1497,1492,1490,1499,1181,-0.000001,0.000000,0.000000,0.000000,0.000000,0.000000,-0.000006,0.000000
1592709610,1497,1492,1490,1499,1181,1497,1492,1490,1499,1181,-0.000001,0.000000,0.000000,0.000000,0.000000,0.000000,-0.000006,0.000000
1592809632,1497,1492,1490,1499,1181,1497,1492,1490,1499,1181,-0.000001,0.000000,0.000000,0.000000,0.000000,0.000000,-0.000006,0.000000
1592909647,1495,1492,1490,1499,1181,1495,1492,1490,1499,1181,-0.000001,0.000000,0.000000,0.000000,0.000000,0.000000,-0.000006,0.000000
1593009669,1486,1492,1490,1499,1182,1486,1492,1490,1499,1182,-0.000001,0.000000,0.000000,0.000000,0.000000,0.000000,-0.000006,0.000000
1593109692,1480,1492,1490,1499,1182,1480,1492,1490,1499,1182,-0.000001,0.000000,0.000000,0.000000,0.000000,0.000000,-0.000006,0.000000
1593209720,1479,1492,1490,1499,1181,1479,1492,1490,1499,1181,-0.000001,0.000000,0.000000,0.000000,0.000000,0.000000,-0.000006,0.000000
1593309734,1472,1493,1490,1499,1181,1472,1493,1490,1499,1181,-0.000001,0.000000,0.000000,0.000000,0.000000,0.000000,-0.000006,0.000000
1593409770,1472,1492,1490,1499,1181,1472,1492,1490,1499,1181,-0.000001,0.000000,0.000000,0.000000,0.000000,0.000000,-0.000006,0.000000
1593509780,1479,1492,1490,1499,1181,1479,1492,1490,1499,1181,-0.000001,0.000000,0.000000,0.000000,0.000000,0.000000,-0.000006,0.000000
1593609793,1497,1492,1490,1499,1181,1497,1492,1490,1499,1181,-0.000001,0.000000,0.000000,0.000000,0.000000,0.000000,-0.000006,0.000000
1593709797,1497,1492,1469,1499,1182,1497,1492,1469,1499,1182,-0.000001,0.000000,0.000000,0.000000,0.000000,0.000000,-0.000006,0.000000
1593809804,1497,1492,1458,1499,1181,1497,1492,1458,1499,1181,-0.000001,0.000000,0.000000,0.000000,0.000000,0.000000,-0.000006,0.000000
1593909814,1497,1492,1450,1499,1181,1497,1492,1450,1499,1181,-0.000001,0.000000,0.000000,0.000000,0.000000,0.000000,-0.000006,0.000000
1594009848,1497,1495,1432,1499,1182,1497,1495,1432,1499,1182,-0.000001,0.000000,0.000000,0.000000,0.000000,0.000000,-0.000006,0.000000
1594109869,1497,1495,1430,1499,1182,1497,1495,1430,1499,1182,-0.000001,0.000000,0.000000,0.000000,0.000000,0.000000,-0.000006,0.000000
1594209886,1497,1495,1427,1499,1181,1497,1495,1427,1499,1181,-0.000001,0.000000,0.000000,0.000000,0.000000,0.000000,-0.000006,0.000000
1594309906,1497,1492,1433,1499,1181,1497,1492,1433,1499,1181,-0.000001,0.000000,0.000000,0.000000,0.000000,0.000000,-0.000006,0.000000
1594409939,1497,1492,1464,1499,1181,1497,1492,1464,1499,1181,-0.000001,0.000000,0.000000,0.000000,0.000000,0.000000,-0.000006,0.000000
1594509952,1497,1492,1476,1499,1181,1497,1492,1476,1499,1181,-0.000001,0.000000,0.000000,0.000000,0.000000,0.000000,-0.000006,0.000000
1594609970,1497,1492,1478,1499,1181,1497,1492,1478,1499,1181,-0.000001,0.000000,0.000000,0.000000,0.000000,0.000000,-0.000006,0.000000
1594709988,1497,1492,1482,1499,1181,1497,1492,1482,1499,1181,-0.000001,0.000000,0.000000,0.000000,0.000000,0.000000,-0.000006,0.000000
1594810021,1497,1492,1474,1499,1181,1497,1492,1474,1499,1181,-0.000001,0.000000,0.000000,0.000000,0.000000,0.000000,-0.000006,0.000000
1594910024,1497,1492,1465,1499,1181,1497,1492,1465,1499,1181,-0.000001,0.000000,0.000000,0.000000,0.000000,0.000000,-0.000006,0.000000
1595010036,1497,1492,1463,1499,1181,1497,1492,1463,1499,1181,-0.000001,0.000000,0.000000,0.000000,0.000000,0.000000,-0.000006,0.000000
1595110061,1497,1492,1466,1499,1181,1497,1492,1466,1499,1181,-0.000001,0.000000,0.000000,0.000000,0.000000,0.000000,-0.000006,0.000000
1595210088,1497,1492,1469,1499,1182,1497,1492,1469,1499,1182,-0.000001,0.000000,0.000000,0.000000,0.000000,0.000000,-0.000006,0.000000
1595310109,1497,1492,1476,1499,1182,1497,1492,1476,1499,1182,-0.000001,0.000000,0.000000,0.000000,0.000000,0.000000,-0.000006,0.000000
1595410131,1497,1492,1481,1499,1181,1497,1492,1481,1499,1181,-0.000001,0.000000,0.000000,0.000000,0.000000,0.000000,-0.000006,0.000000
1595510164,1497,1492,1489,1499,1182,1497,1492,1489,1499,1182,-0.000001,0.000000,0.000000,0.000000,0.000000,0.000000,-0.000006,0.000000
1595610169,1497,1492,1491,1499,1181,1497,1492,1491,1499,1181,-0.000001,0.000000,0.000000,0.000000,0.000000,0.000000,-0.000006,0.000000
1595710185,1497,1492,1491,1499,1182,1497,1492,1491,1499,1182,-0.000001,0.000000,0.000000,0.000000,0.000000,0.000000,-0.000006,0.000000
1595810196,1497,1492,1491,1499,1181,1497,1492,1491,1499,1181,-0.000001,0.000000,0.000000,0.000000,0.000000,0.000000,-0.000006,0.000000
1595910210,1497,1489,1491,1499,1181,1497,1489,1491,1499,1181,-0.000001,0.000000,0.000000,0.000000,0.000000,0.000000,-0.000006,0.000000
1596010240,1497,1490,1491,1499,1181,1497,1490,1491,1499,1181,-0.000001,0.000000,0.000000,0.000000,0.000000,0.000000,-0.000006,0.000000
1596110249,1497,1490,1492,1499,1181,1497,1490,1492,1499,1181,-0.000001,0.000000,0.000000,0.000000,0.000000,0.000000,-0.000006,0.000000
1596210277,1497,1490,1492,1499,1181,1497,1490,1492,1499,1181,-0.000001,0.000000,0.000000,0.000000,0.000000,0.000000,-0.000006,0.000000
1596310286,1497,1489,1492,1499,1182,1497,1489,1492,1499,1182,-0.000001,0.000000,0.000000,0.000000,0.000000,0.000000,-0.000006,0.000000
1596410309,1497,1492,1492,1498,1182,1497,1492,1492,1498,1182,-0.000001,0.000000,0.000000,0.000000,0.000000,0.000000,-0.000006,0.000000
1596510319,1503,1492,1492,1498,1181,1503,1492,1492,1498,1181,-0.000001,0.000000,0.000000,0.000000,0.000000,0.000000,-0.000006,0.000000
1596610332,1517,1492,1492,1498,1182,1517,1492,1492,1498,1182,-0.000001,0.000000,0.000000,0.000000,0.000000,0.000000,-0.000006,0.000000
1596710333,1529,1492,1492,1498,1182,1529,1492,1492,1498,1182,-0.000001,0.000000,0.000000,0.000000,0.000000,0.000000,-0.000006,0.000000
1596810351,1537,1492,1492,1498,1181,1537,1492,1492,1498,1181,-0.000001,0.000000,0.000000,0.000000,0.000000,0.000000,-0.000006,0.000000
1596910386,1543,1492,1492,1498,1182,1543,1492,1492,1498,1182,-0.000001,0.000000,0.000000,0.000000,0.000000,0.000000,-0.000006,0.000000
1597010402,1555,1492,1492,1498,1182,1555,1492,1492,1498,1182,-0.000001,0.000000,0.000000,0.000000,0.000000,0.000000,-0.000006,0.000000
1597110408,1559,1492,1492,1498,1182,1559,1492,1492,1498,1182,-0.000001,0.000000,0.000000,0.000000,0.000000,0.000000,-0.000006,0.000000
1597210428,1562,1492,1491,1498,1182,1562,1492,1491,1498,1182,-0.000001,0.000000,0.000000,0.000000,0.000000,0.000000,-0.000006,0.000000
1597310445,1562,1492,1491,1498,1182,1562,1492,1491,1498,1182,-0.000001,0.000000,0.000000,0.000000,0.000000,0.000000,-0.000006,0.000000
1597410475,1559,1492,1492,1498,1182,1559,1492,1492,1498,1182,-0.000001,0.000000,0.000000,0.000000,0.000000,0.000000,-0.000006,0.000000
1597510480,1546,1492,1491,1498,1181,1546,1492,1491,1498,1181,-0.000001,0.000000,0.000000,0.000000,0.000000,0.000000,-0.000006,0.000000
1597610492,1520,1492,1491,1497,1182,1520,1492,1491,1497,1182,-0.000001,0.000000,0.000000,0.000000,0.000000,0.000000,-0.000006,0.000000
1597710494,1520,1492,1492,1497,1181,1520,1492,1492,1497,1181,-0.000001,0.000000,0.000000,0.000000,0.000000,0.000000,-0.000006,0.000000
1597810513,1497,1492,1492,1498,1182,1497,1492,1492,1498,1182,-0.000001,0.000000,0.000000,0.000000,0.000000,0.000000,-0.000006,0.000000
1597910517,1497,1492,1492,1497,1181,1497,1492,1492,1497,1181,-0.000001,0.000000,0.000000,0.000000,0.000000,0.000000,-0.000006,0.000000
1598010553,1497,1492,1491,1497,1181,1497,1492,1491,1497,1181,-0.000001,0.000000,0.000000,0.000000,0.000000,0.000000,-0.000006,0.000000
1598110560,1497,1492,1492,1497,1182,1497,1492,1492,1497,1182,-0.000001,0.000000,0.000000,0.000000,0.000000,0.000000,-0.000006,0.000000
1598210578,1498,1492,1492,1498,1182,1498,1492,1492,1498,1182,-0.000001,0.000000,0.000000,0.000000,0.000000,0.000000,-0.000006,0.000000
1598310604,1521,1492,1491,1498,1182,1521,1492,1491,1498,1182,-0.000001,0.000000,0.000000,0.000000,0.000000,0.000000,-0.000006,0.000000
1598410635,1535,1492,1492,1498,1181,1535,1492,1492,1498,1181,-0.000001,0.000000,0.000000,0.000000,0.000000,0.000000,-0.000006,0.000000
1598510661,1542,1492,1492,1498,1181,1542,1492,1492,1498,1181,-0.000001,0.000000,0.000000,0.000000,0.000000,0.000000,-0.000006,0.000000
1598610672,1546,1492,1492,1497,1181,1546,1492,1492,1497,1181,-0.000001,0.000000,0.000000,0.000000,0.000000,0.000000,-0.000006,0.000000
1598710679,1546,1492,1491,1497,1182,1546,1492,1491,1497,1182,-0.000001,0.000000,0.000000,0.000000,0.000000,0.000000,-0.000006,0.000000
1598810682,1550,1492,1492,1497,1182,1550,1492,1492,1497,1182,-0.000001,0.000000,0.000000,0.000000,0.000000,0.000000,-0.000006,0.000000
1598910697,1552,1492,1491,1497,1182,1552,1492,1491,1497,1182,-0.000001,0.000000,0.000000,0.000000,0.000000,0.000000,-0.000006,0.000000
1599010715,1555,1492,1491,1497,1182,1555,1492,1491,1497,1182,-0.000001,0.000000,0.000000,0.000000,0.000000,0.000000,-0.000006,0.000000
1599110723,1555,1492,1492,1497,1181,1555,1492,1492,1497,1181,-0.000001,0.000000,0.000000,0.000000,0.000000,0.000000,-0.000006,0.000000
1599210742,1559,1492,1491,1497,1181,1559,1492,1491,1497,1181,-0.000001,0.000000,0.000000,0.000000,0.000000,0.000000,-0.000006,0.000000
1599310746,1559,1492,1491,1497,1181,1559,1492,1491,1497,1181,-0.000001,0.000000,0.000000,0.000000,0.000000,0.000000,-0.000006,0.000000
1599410770,1559,1492,1491,1497,1182,1559,1492,1491,1497,1182,-0.000001,0.000000,0.000000,0.000000,0.000000,0.000000,-0.000006,0.000000
1599510788,1559,1492,1491,1497,1181,1559,1492,1491,1497,1181,-0.000001,0.000000,0.000000,0.000000,0.000000,0.000000,-0.000006,0.000000
1599610790,1559,1492,1491,1497,1182,1559,1492,1491,1497,1182,-0.000001,0.000000,0.000000,0.000000,0.000000,0.000000,-0.000006,0.000000
1599710824,1559,1492,1491,1497,1182,1559,1492,1491,1497,1182,-0.000001,0.000000,0.000000,0.000000,0.000000,0.000000,-0.000006,0.000000
1599810839,1559,1495,1478,1497,1181,1559,1495,1478,1497,1181,-0.000001,0.000000,0.000000,0.000000,0.000000,0.000000,-0.000006,0.000000
1599910854,1559,1496,1471,1497,1182,1559,1496,1471,1497,1182,-0.000001,0.000000,0.000000,0.000000,0.000000,0.000000,-0.000006,0.000000
1600010888,1559,1496,1467,1497,1181,1559,1496,1467,1497,1181,-0.000001,0.000000,0.000000,0.000000,0.000000,0.000000,-0.000006,0.000000
1600110902,1559,1500,1459,1497,1182,1559,1500,1459,1497,1182,-0.000001,0.000000,0.000000,0.000000,0.000000,0.000000,-0.000006,0.000000
1600210928,1559,1506,1451,1497,1181,1559,1506,1451,1497,1181,-0.000001,0.000000,0.000000,0.000000,0.000000,0.000000,-0.000006,0.000000
1600310944,1560,1512,1444,1497,1181,1560,1512,1444,1497,1181,-0.000001,0.000000,0.000000,0.000000,0.000000,0.000000,-0.000006,0.000000
1600410958,1559,1513,1444,1497,1181,1559,1513,1444,1497,1181,-0.000001,0.000000,0.000000,0.000000,0.000000,0.000000,-0.000006,0.000000
1600510967,1559,1508,1445,1497,1181,1559,1508,1445,1497,1181,-0.000001,0.000000,0.000000,0.000000,0.000000,0.000000,-0.000006,0.000000
1600610993,1559,1510,1445,1497,1181,1559,1510,1445,1497,1181,-0.000001,0.000000,0.000000,0.000000,0.000000,0.000000,-0.000006,0.000000
1600711029,1557,1510,1445,1497,1181,1557,1510,1445,1497,1181,-0.000001,0.000000,0.000000,0.000000,0.000000,0.000000,-0.000006,0.000000
1600811057,1555,1505,1457,1497,1181,1555,1505,1457,1497,1181,-0.000001,0.000000,0.000000,0.000000,0.000000,0.000000,-0.000006,0.000000
1600911073,1552,1505,1463,1497,1182,1552,1505,1463,1497,1182,-0.000001,0.000000,0.000000,0.000000,0.000000,0.000000,-0.000006,0.000000
1601011098,1546,1530,1465,1497,1181,1546,1530,1465,1497,1181,-0.000001,0.000000,0.000000,0.000000,0.000000,0.000000,-0.000006,0.000000
1601111105,1539,1547,1463,1497,1181,1539,1547,1463,1497,1181,-0.000001,0.000000,0.000000,0.000000,0.000000,0.000000,-0.000006,0.000000
1601211135,1539,1549,1465,1497,1181,1539,1549,1465,1497,1181,-0.000001,0.000000,0.000000,0.000000,0.000000,0.000000,-0.000006,0.000000
1601311147,1543,1545,1466,1497,1181,1543,1545,1466,1497,1181,-0.000001,0.000000,0.000000,0.000000,0.000000,0.000000,-0.000006,0.000000
1601411189,1546,1545,1457,1497,1181,1546,1545,1457,1497,1181,-0.000001,0.000000,0.000000,0.000000,0.000000,0.000000,-0.000006,0.000000
1601511203,1553,1545,1446,1497,1182,1553,1545,1446,1497,1182,-0.000001,0.000000,0.000000,0.000000,0.000000,0.000000,-0.000006,0.000000
1601611206,1555,1545,1445,1497,1182,1555,1545,1445,1497,1182,-0.000001,0.000000,0.000000,0.000000,0.000000,0.000000,-0.000006,0.000000
1601711208,1555,1543,1445,1497,1181,1555,1543,1445,1497,1181,-0.000001,0.000000,0.000000,0.000000,0.000000,0.000000,-0.000006,0.000000
1601811211,1559,1539,1445,1497,1181,1559,1539,1445,1497,1181,-0.000001,0.000000,0.000000,0.000000,0.000000,0.000000,-0.000006,0.000000
1601911236,1559,1526,1445,1497,1181,1559,1526,1445,1497,1181,-0.000001,0.000000,0.000000,0.000000,0.000000,0.000000,-0.000006,0.000000
1602011255,1559,1516,1454,1497,1181,1559,1516,1454,1497,1181,-0.000001,0.000000,0.000000,0.000000,0.000000,0.000000,-0.000006,0.000000
1602111267,1562,1510,1454,1497,1181,1562,1510,1454,1497,1181,-0.000001,0.000000,0.000000,0.000000,0.000000,0.000000,-0.000006,0.000000
1602211271,1562,1502,1461,1497,1182,1562,1502,1461,1497,1182,-0.000001,0.000000,0.000000,0.000000,0.000000,0.000000,-0.000006,0.000000
1602311298,1564,1495,1468,1497,1181,1564,1495,1468,1497,1181,-0.000001,0.000000,0.000000,0.000000,0.000000,0.000000,-0.000006,0.000000
1602411323,1566,1495,1469,1497,1181,1566,1495,1469,1497,1181,-0.000001,0.000000,0.000000,0.000000,0.000000,0.000000,-0.000006,0.000000
1602511344,1565,1495,1469,1497,1182,1565,1495,1469,1497,1182,-0.000001,0.000000,0.000000,0.000000,0.000000,0.000000,-0.000006,0.000000
1602611367,1566,1495,1469,1497,1181,1566,1495,1469,1497,1181,-0.000001,0.000000,0.000000,0.000000,0.000000,0.000000,-0.000006,0.000000
1602711385,1565,1496,1467,1497,1181,1565,1496,1467,1497,1181,-0.000001,0.000000,0.000000,0.000000,0.000000,0.000000,-0.000006,0.000000
1602811396,1565,1497,1463,1497,1181,1565,1497,1463,1497,1181,-0.000001,0.000000,0.000000,0.000000,0.000000,0.000000,-0.000006,0.000000
1602911408,1566,1498,1461,1497,1181,1566,1498,1461,1497,1181,-0.000001,0.000000,0.000000,0.000000,0.000000,0.000000,-0.000006,0.000000
1603011418,1565,1501,1459,1497,1182,1565,1501,1459,1497,1182,-0.000001,0.000000,0.000000,0.000000,0.000000,0.000000,-0.000006,0.000000
1603111428,1566,1506,1457,1497,1181,1566,1506,1457,1497,1181,-0.000001,0.000000,0.000000,0.000000,0.000000,0.000000,-0.000006,0.000000
1603211430,1562,1510,1455,1497,1181,1562,1510,1455,1497,1181,-0.000001,0.000000,0.000000,0.000000,0.000000,0.000000,-0.000006,0.000000
1603311452,1560,1510,1454,1497,1181,1560,1510,1454,1497,1181,-0.000001,0.000000,0.000000,0.000000,0.000000,0.000000,-0.000006,0.000000
1603411463,1524,1501,1463,1497,1181,1524,1501,1463,1497,1181,-0.000001,0.000000,0.000000,0.000000,0.000000,0.000000,-0.000006,0.000000
1603511470,1497,1496,1469,1498,1181,1497,1496,1469,1498,1181,-0.000001,0.000000,0.000000,0.000000,0.000000,0.000000,-0.000006,0.000000
1603611503,1497,1496,1477,1498,1181,1497,1496,1477,1498,1181,-0.000001,0.000000,0.000000,0.000000,0.000000,0.000000,-0.000006,0.000000
1603711531,1497,1495,1482,1498,1181,1497,1495,1482,1498,1181,-0.000001,0.000000,0.000000,0.000000,0.000000,0.000000,-0.000006,0.000000
1603811541,1497,1495,1487,1498,1181,1497,1495,1487,1498,1181,-0.000001,0.000000,0.000000,0.000000,0.000000,0.000000,-0.000006,0.000000
1603911573,1497,1501,1474,1498,1181,1497,1501,1474,1498,1181,-0.000001,0.000000,0.000000,0.000000,0.000000,0.000000,-0.000006,0.000000
1604011574,1497,1497,1476,1498,1181,1497,1497,1476,1498,1181,-0.000001,0.000000,0.000000,0.000000,0.000000,0.000000,-0.000006,0.000000
1604111575,1497,1495,1484,1498,1182,1497,1495,1484,1498,1182,-0.000001,0.000000,0.000000,0.000000,0.000000,0.000000,-0.000006,0.000000
1604211609,1497,1495,1482,1497,1181,1497,1495,1482,1497,1181,-0.000001,0.000000,0.000000,0.000000,0.000000,0.000000,-0.000006,0.000000
1604311631,1515,1514,1463,1498,1182,1515,1514,1463,1498,1182,-0.000001,0.000000,0.000000,0.000000,0.000000,0.000000,-0.000006,0.000000
1604411650,1521,1521,1457,1498,1181,1521,1521,1457,1498,1181,-0.000001,0.000000,0.000000,0.000000,0.000000,0.000000,-0.000006,0.000000
1604511673,1529,1530,1445,1498,1181,1529,1530,1445,1498,1181,-0.000001,0.000000,0.000000,0.000000,0.000000,0.000000,-0.000006,0.000000
1604611696,1534,1531,1441,1498,1181,1534,1531,1441,1498,1181,-0.000001,0.000000,0.000000,0.000000,0.000000,0.000000,-0.000006,0.000000
1604711731,1538,1533,1440,1498,1181,1538,1533,1440,1498,1181,-0.000001,0.000000,0.000000,0.000000,0.000000,0.000000,-0.000006,0.000000
1604811750,1539,1536,1438,1498,1181,1539,1536,1438,1498,1181,-0.000001,0.000000,0.000000,0.000000,0.000000,0.000000,-0.000006,0.000000
1604911768,1546,1543,1433,1498,1182,1546,1543,1433,1498,1182,-0.000001,0.000000,0.000000,0.000000,0.000000,0.000000,-0.000006,0.000000
1605011793,1549,1544,1432,1498,1181,1549,1544,1432,1498,1181,-0.000001,0.000000,0.000000,0.000000,0.000000,0.000000,-0.000006,0.000000
1605111825,1552,1545,1432,1499,1181,1552,1545,1432,1499,1181,-0.000001,0.000000,0.000000,0.000000,0.000000,0.000000,-0.000006,0.000000
1605211860,1555,1545,1432,1498,1181,1555,1545,1432,1498,1181,-0.000001,0.000000,0.000000,0.000000,0.000000,0.000000,-0.000006,0.000000
1605311889,1557,1545,1432,1498,1182,1557,1545,1432,1498,1182,-0.000001,0.000000,0.000000,0.000000,0.000000,0.000000,-0.000006,0.000000
1605411916,1557,1545,1432,1498,1182,1557,1545,1432,1498,1182,-0.000001,0.000000,0.000000,0.000000,0.000000,0.000000,-0.000006,0.000000
1605511928,1560,1545,1432,1498,1182,1560,1545,1432,1498,1182,-0.000001,0.000000,0.000000,0.000000,0.000000,0.000000,-0.000006,0.000000
1605611957,1561,1545,1432,1498,1182,1561,1545,1432,1498,1182,-0.000001,0.000000,0.000000,0.000000,0.000000,0.000000,-0.000006,0.000000
1605711993,1560,1539,1438,1498,1181,1560,1539,1438,1498,1181,-0.000001,0.000000,0.000000,0.000000,0.000000,0.000000,-0.000006,0.000000
1605811997,1559,1517,1464,1498,1182,1559,1517,1464,1498,1182,-0.000001,0.000000,0.000000,0.000000,0.000000,0.000000,-0.000006,0.000000
1605912030,1552,1500,1492,1498,1181,1552,1500,1492,1498,1181,-0.000001,0.000000,0.000000,0.000000,0.000000,0.000000,-0.000006,0.000000
1606012048,1544,1496,1503,1497,1181,1544,1496,1503,1497,1181,-0.000001,0.000000,0.000000,0.000000,0.000000,0.000000,-0.000006,0.000000
1606112083,1543,1500,1513,1497,1181,1543,1500,1513,1497,1181,-0.000001,0.000000,0.000000,0.000000,0.000000,0.000000,-0.000006,0.000000
1606212101,1543,1521,1513,1497,1181,1543,1521,1513,1497,1181,-0.000001,0.000000,0.000000,0.000000,0.000000,0.000000,-0.000006,0.000000
1606312106,1544,1520,1512,1497,1181,1544,1520,1512,1497,1181,-0.000001,0.000000,0.000000,0.000000,0.000000,0.000000,-0.000006,0.000000
1606412139,1544,1511,1521,1497,1181,1544,1511,1521,1497,1181,-0.000001,0.000000,0.000000,0.000000,0.000000,0.000000,-0.000006,0.000000
1606512163,1548,1501,1517,1497,1181,1548,1501,1517,1497,1181,-0.000001,0.000000,0.000000,0.000000,0.000000,0.000000,-0.000006,0.000000
1606612167,1557,1497,1518,1497,1182,1557,1497,1518,1497,1182,-0.000001,0.000000,0.000000,0.000000,0.000000,0.000000,-0.000006,0.000000
1606712176,1555,1497,1525,1497,1181,1555,1497,1525,1497,1181,-0.000001,0.000000,0.000000,0.000000,0.000000,0.000000,-0.000006,0.000000
1606812204,1550,1492,1534,1497,1181,1550,1492,1534,1497,1181,-0.000001,0.000000,0.000000,0.000000,0.000000,0.000000,-0.000006,0.000000
1606912220,1547,1492,1541,1497,1181,1547,1492,1541,1497,1181,-0.000001,0.000000,0.000000,0.000000,0.000000,0.000000,-0.000006,0.000000
1607012235,1546,1492,1543,1496,1182,1546,1492,1543,1496,1182,-0.000001,0.000000,0.000000,0.000000,0.000000,0.000000,-0.000006,0.000000
1607112256,1547,1492,1542,1497,1181,1547,1492,1542,1497,1181,-0.000001,0.000000,0.000000,0.000000,0.000000,0.000000,-0.000006,0.000000
1607212267,1547,1492,1542,1496,1181,1547,1492,1542,1496,1181,-0.000001,0.000000,0.000000,0.000000,0.000000,0.000000,-0.000006,0.000000
1607312294,1547,1492,1541,1496,1182,1547,1492,1541,1496,1182,-0.000001,0.000000,0.000000,0.000000,0.000000,0.000000,-0.000006,0.000000
1607412314,1549,1492,1538,1496,1181,1549,1492,1538,1496,1181,-0.000001,0.000000,0.000000,0.000000,0.000000,0.000000,-0.000006,0.000000
1607512324,1557,1492,1522,1496,1181,1557,1492,1522,1496,1181,-0.000001,0.000000,0.000000,0.000000,0.000000,0.000000,-0.000006,0.000000
1607612346,1557,1492,1514,1496,1181,1557,1492,1514,1496,1181,-0.000001,0.000000,0.000000,0.000000,0.000000,0.000000,-0.000006,0.000000
1607712354,1560,1496,1508,1496,1181,1560,1496,1508,1496,1181,-0.000001,0.000000,0.000000,0.000000,0.000000,0.000000,-0.000006,0.000000
1607812390,1559,1496,1505,1496,1181,1559,1496,1505,1496,1181,-0.000001,0.000000,0.000000,0.000000,0.000000,0.000000,-0.000006,0.000000
1607912399,1555,1496,1503,1496,1182,1555,1496,1503,1496,1182,-0.000001,0.000000,0.000000,0.000000,0.000000,0.000000,-0.000006,0.000000
1608012421,1552,1496,1502,1496,1181,1552,1496,1502,1496,1181,-0.000001,0.000000,0.000000,0.000000,0.000000,0.000000,-0.000006,0.000000
1608112428,1539,1497,1500,1496,1181,1539,1497,1500,1496,1181,-0.000001,0.000000,0.000000,0.000000,0.000000,0.000000,-0.000006,0.000000
1608212479,1532,1497,1497,1496,1182,1532,1497,1497,1496,1182,-0.000001,0.000000,0.000000,0.000000,0.000000,0.000000,-0.000006,0.000000
1608312509,1497,1497,1492,1497,1182,1497,1497,1492,1497,1182,-0.000001,0.000000,0.000000,0.000000,0.000000,0.000000,-0.000006,0.000000
1608412536,1497,1496,1492,1499,1181,1497,1496,1492,1499,1181,-0.000001,0.000000,0.000000,0.000000,0.000000,0.000000,-0.000006,0.000000
1608512557,1497,1496,1492,1499,1182,1497,1496,1492,1499,1182,-0.000001,0.000000,0.000000,0.000000,0.000000,0.000000,-0.000006,0.000000
1608612558,1497,1496,1492,1499,1181,1497,1496,1492,1499,1181,-0.000001,0.000000,0.000000,0.000000,0.000000,0.000000,-0.000006,0.000000
1608712578,1497,1495,1493,1499,1182,1497,1495,1493,1499,1182,-0.000001,0.000000,0.000000,0.000000,0.000000,0.000000,-0.000006,0.000000
1608812602,1497,1496,1493,1499,1181,1497,1496,1493,1499,1181,-0.000001,0.000000,0.000000,0.000000,0.000000,0.000000,-0.000006,0.000000
1608912609,1497,1495,1492,1499,1181,1497,1495,1492,1499,1181,-0.000001,0.000000,0.000000,0.000000,0.000000,0.000000,-0.000006,0.000000
1609012610,1497,1496,1492,1499,1181,1497,1496,1492,1499,1181,-0.000001,0.000000,0.000000,0.000000,0.000000,0.000000,-0.000006,0.000000
1609112616,1497,1496,1492,1499,1181,1497,1496,1492,1499,1181,-0.000001,0.000000,0.000000,0.000000,0.000000,0.000000,-0.000006,0.000000
1609212635,1497,1494,1492,1499,1181,1497,1494,1492,1499,1181,-0.000001,0.000000,0.000000,0.000000,0.000000,0.000000,-0.000006,0.000000
1609312664,1497,1494,1492,1499,1181,1497,1494,1492,1499,1181,-0.000001,0.000000,0.000000,0.000000,0.000000,0.000000,-0.000006,0.000000
1609412686,1497,1495,1492,1499,1181,1497,1495,1492,1499,1181,-0.000001,0.000000,0.000000,0.000000,0.000000,0.000000,-0.000006,0.000000
1609512694,1496,1495,1492,1499,1181,1496,1495,1492,1499,1181,-0.000001,0.000000,0.000000,0.000000,0.000000,0.000000,-0.000006,0.000000
1609612730,1497,1501,1492,1499,1181,1497,1501,1492,1499,1181,-0.000001,0.000000,0.000000,0.000000,0.000000,0.000000,-0.000006,0.000000
1609712753,1496,1510,1492,1499,1181,1496,1510,1492,1499,1181,-0.000001,0.000000,0.000000,0.000000,0.000000,0.000000,-0.000006,0.000000
1609812768,1497,1495,1492,1499,1855,1516,1495,1490,1499,1855,0.060337,-0.005232,-1.053295,-0.033831,0.000000,0.000000,0.000000,0.000000
1609912777,1497,1492,1492,1499,1855,1516,1492,1491,1499,1855,0.060337,-0.005232,-1.053295,-0.033831,0.000000,0.000000,0.000000,0.000000
1610012778,1497,1492,1492,1499,1855,1516,1492,1492,1499,1855,0.060337,-0.005232,-1.053295,-0.033831,0.000000,0.000000,0.000000,0.000000
1610112780,1497,1492,1492,1499,1855,1516,1492,1493,1499,1855,0.060337,-0.005232,-1.053295,-0.033831,0.000000,0.000000,0.000000,0.000000
1610212781,1497,1492,1492,1499,1855,1515,1492,1494,1499,1855,0.060337,-0.005232,-1.053295,-0.033831,0.000000,0.000000,0.000000,0.000000
1610312800,1497,1492,1492,1499,1855,1515,1492,1495,1499,1855,0.060337,-0.005232,-1.053295,-0.033831,0.000000,0.000000,0.000000,0.000000
1610412802,1497,1492,1492,1499,1855,1514,1492,1495,1499,1855,0.060337,-0.005232,-1.053295,-0.033831,0.000000,0.000000,0.000000,0.000000
1610512821,1497,1492,1492,1499,1855,1514,1492,1496,1499,1855,0.060337,-0.005232,-1.053295,-0.033831,0.000000,0.000000,0.000000,0.000000
1610612823,1497,1492,1492,1499,1855,1513,1492,1497,1499,1855,0.060337,-0.005232,-1.053295,-0.033831,0.000000,0.000000,0.000000,0.000000
1610712849,1497,1492,1492,1499,1855,1513,1492,1497,1499,1855,0.060337,-0.005232,-1.053295,-0.033831,0.000000,0.000000,0.000000,0.000000
1610812865,1497,1492,1492,1499,1855,1513,1492,1498,1499,1855,0.060337,-0.005232,-1.053295,-0.033831,0.000000,0.000000,0.000000,0.000000
1610912867,1497,1492,1492,1499,1855,1512,1492,1498,1499,1855,0.060337,-0.005232,-1.053295,-0.033831,0.000000,0.000000,0.000000,0.000000
1611012902,1497,1492,1492,1499,1855,1512,1492,1499,1499,1855,0.060337,-0.005232,-1.053295,-0.033831,0.000000,0.000000,0.000000,0.000000
1611112926,1497,1492,1492,1499,1855,1511,1492,1499,1499,1855,0.060337,-0.005232,-1.053295,-0.033831,0.000000,0.000000,0.000000,0.000000
1611212945,1497,1492,1492,1499,1855,1511,1492,1500,1499,1855,0.060337,-0.005232,-1.053295,-0.033831,0.000000,0.000000,0.000000,0.000000
1611312975,1497,1492,1492,1499,1855,1511,1492,1500,1499,1855,0.060337,-0.005232,-1.053295,-0.033831,0.000000,0.000000,0.000000,0.000000
1611412999,1497,1492,1492,1499,1855,1510,1492,1501,1499,1855,0.060337,-0.005232,-1.053295,-0.033831,0.000000,0.000000,0.000000,0.000000
1611513025,1497,1492,1492,1499,1855,1510,1492,1501,1499,1855,0.060337,-0.005232,-1.053295,-0.033831,0.000000,0.000000,0.000000,0.000000
1611613045,1497,1492,1492,1499,1855,1510,1492,1502,1499,1855,0.060337,-0.005232,-1.053295,-0.033831,0.000000,0.000000,0.000000,0.000000
1611713067,1497,1492,1492,1499,1855,1509,1492,1502,1499,1855,0.060337,-0.005232,-1.053295,-0.033831,0.000000,0.000000,0.000000,0.000000
1611813101,1497,1492,1492,1499,1855,1509,1492,1502,1499,1855,0.060337,-0.005232,-1.053295,-0.033831,0.000000,0.000000,0.000000,0.000000
1611913124,1497,1492,1492,1499,1855,1509,1492,1502,1499,1855,0.060337,-0.005232,-1.053295,-0.033831,0.000000,0.000000,0.000000,0.000000
1612013129,1497,1492,1492,1499,1855,1508,1492,1503,1499,1855,0.060337,-0.005232,-1.053295,-0.033831,0.000000,0.000000,0.000000,0.000000
1612113132,1497,1492,1492,1499,1855,1508,1492,1503,1499,1855,0.060337,-0.005232,-1.053295,-0.033831,0.000000,0.000000,0.000000,0.000000
1612213151,1497,1492,1492,1499,1855,1508,1492,1503,1499,1855,0.060337,-0.005232,-1.053295,-0.033831,0.000000,0.000000,0.000000,0.000000
1612313181,1497,1492,1492,1499,1855,1508,1492,1503,1499,1855,0.060337,-0.005232,-1.053295,-0.033831,0.000000,0.000000,0.000000,0.000000
1612413186,1497,1492,1492,1499,1855,1507,1492,1503,1499,1855,0.060337,-0.005232,-1.053295,-0.033831,0.000000,0.000000,0.000000,0.000000
1612513195,1497,1492,1492,1499,1855,1507,1492,1504,1499,1855,0.060337,-0.005232,-1.053295,-0.033831,0.000000,0.000000,0.000000,0.000000
1612613212,1497,1492,1492,1499,1855,1506,1492,1504,1499,1855,0.060337,-0.005232,-1.053295,-0.033831,0.000000,0.000000,0.000000,0.000000
1612713226,1497,1492,1492,1499,1855,1506,1492,1504,1499,1855,0.060337,-0.005232,-1.053295,-0.033831,0.000000,0.000000,0.000000,0.000000
1612813258,1497,1492,1492,1499,1855,1505,1492,1504,1499,1855,0.060337,-0.005232,-1.053295,-0.033831,0.000000,0.000000,0.000000,0.000000
1612913271,1497,1492,1492,1499,1855,1505,1492,1504,1499,1855,0.060337,-0.005232,-1.053295,-0.033831,0.000000,0.000000,0.000000,0.000000
1613013292,1497,1492,1492,1499,1855,1505,1492,1504,1499,1855,0.060337,-0.005232,-1.053295,-0.033831,0.000000,0.000000,0.000000,0.000000
1613113314,1497,1492,1492,1499,1855,1504,1492,1504,1499,1855,0.060337,-0.005232,-1.053295,-0.033831,0.000000,0.000000,0.000000,0.000000
1613213323,1497,1492,1492,1499,1855,1504,1492,1505,1499,1855,0.060337,-0.005232,-1.053295,-0.033831,0.000000,0.000000,0.000000,0.000000
1613313343,1497,1492,1492,1499,1855,1504,1492,1505,1499,1855,0.060337,-0.005232,-1.053295,-0.033831,0.000000,0.000000,0.000000,0.000000
1613413350,1497,1492,1492,1499,1855,1503,1492,1505,1499,1855,0.060337,-0.005232,-1.053295,-0.033831,0.000000,0.000000,0.000000,0.000000
1613513383,1497,1492,1492,1499,1855,1503,1492,1505,1499,1855,0.060337,-0.005232,-1.053295,-0.033831,0.000000,0.000000,0.000000,0.000000
1613613412,1497,1492,1492,1499,1855,1503,1492,1505,1499,1855,0.060337,-0.005232,-1.053295,-0.033831,0.000000,0.000000,0.000000,0.000000
1613713441,1497,1492,1492,1499,1855,1503,1492,1505,1499,1855,0.060337,-0.005232,-1.053295,-0.033831,0.000000,0.000000,0.000000,0.000000
1613813448,1497,1492,1492,1499,1855,1502,1492,1505,1499,1855,0.060337,-0.005232,-1.053295,-0.033831,0.000000,0.000000,0.000000,0.000000
1613913484,1497,1492,1492,1499,1855,1502,1492,1505,1499,1855,0.060337,-0.005232,-1.053295,-0.033831,0.000000,0.000000,0.000000,0.000000
1614013487,1497,1492,1492,1499,1855,1502,1492,1505,1499,1855,0.060337,-0.005232,-1.053295,-0.033831,0.000000,0.000000,0.000000,0.000000
1614113522,1497,1492,1492,1499,1855,1501,1492,1505,1499,1855,0.060337,-0.005232,-1.053295,-0.033831,0.000000,0.000000,0.000000,0.000000
1614213549,1497,1492,1492,1499,1855,1501,1492,1505,1499,1855,0.060337,-0.005232,-1.053295,-0.033831,0.000000,0.000000,0.000000,0.000000
1614313567,1497,1492,1492,1499,1855,1500,1492,1505,1499,1855,0.060337,-0.005232,-1.053295,-0.033831,0.000000,0.000000,0.000000,0.000000
1614413603,1497,1492,1492,1499,1855,1500,1492,1505,1499,1855,0.060337,-0.005232,-1.053295,-0.033831,0.000000,0.000000,0.000000,0.000000
1614513639,1497,1492,1492,1499,1855,1499,1492,1505,1499,1855,0.060337,-0.005232,-1.053295,-0.033831,0.000000,0.000000,0.000000,0.000000
1614613641,1497,1492,1492,1499,1855,1499,1492,1505,1499,1855,0.060337,-0.005232,-1.053295,-0.033831,0.000000,0.000000,0.000000,0.000000
1614713676,1497,1492,1492,1499,1855,1498,1492,1505,1499,1855,0.060337,-0.005232,-1.053295,-0.033831,0.000000,0.000000,0.000000,0.000000
1614813687,1497,1492,1492,1499,1856,1497,1492,1506,1499,1856,0.060337,-0.005232,-1.053295,-0.033831,0.000000,0.000000,0.000000,0.000000
1614913698,1497,1492,1492,1499,1855,1497,1492,1506,1499,1855,0.060337,-0.005232,-1.053295,-0.033831,0.000000,0.000000,0.000000,0.000000
1615013700,1497,1492,1492,1499,1855,1496,1492,1506,1499,1855,0.060337,-0.005232,-1.053295,-0.033831,0.000000,0.000000,0.000000,0.000000
1615113706,1497,1492,1492,1499,1855,1496,1492,1506,1499,1855,0.060337,-0.005232,-1.053295,-0.033831,0.000000,0.000000,0.000000,0.000000
1615213735,1497,1492,1492,1499,1855,1496,1492,1506,1499,1855,0.060337,-0.005232,-1.053295,-0.033831,0.000000,0.000000,0.000000,0.000000
1615313763,1497,1501,1490,1499,1855,1495,1501,1506,1499,1855,0.060337,-0.005232,-1.053295,-0.033831,0.000000,0.000000,0.000000,0.000000
1615413774,1497,1529,1491,1499,1855,1495,1529,1506,1499,1855,0.060337,-0.005232,-1.053295,-0.033831,0.000000,0.000000,0.000000,0.000000
1615513805,1497,1549,1491,1499,1856,1495,1549,1507,1499,1856,0.060337,-0.005232,-1.053295,-0.033831,0.000000,0.000000,0.000000,0.000000
1615613827,1497,1549,1491,1499,1855,1495,1549,1507,1499,1855,0.060337,-0.005232,-1.053295,-0.033831,0.000000,0.000000,0.000000,0.000000
1615713853,1497,1550,1491,1499,1855,1494,1550,1507,1499,1855,0.060337,-0.005232,-1.053295,-0.033831,0.000000,0.000000,0.000000,0.000000
1615813880,1497,1554,1490,1499,1855,1494,1554,1507,1499,1855,0.060337,-0.005232,-1.053295,-0.033831,0.000000,0.000000,0.000000,0.000000
1615913899,1497,1569,1491,1499,1855,1494,1569,1507,1499,1855,0.060337,-0.005232,-1.053295,-0.033831,0.000000,0.000000,0.000000,0.000000
1616013906,1497,1505,1491,1499,1855,1493,1505,1508,1499,1855,0.060337,-0.005232,-1.053295,-0.033831,0.000000,0.000000,0.000000,0.000000
1616113937,1496,1492,1491,1499,1855,1493,1492,1508,1499,1855,0.060337,-0.005232,-1.053295,-0.033831,0.000000,0.000000,0.000000,0.000000
1616213955,1497,1492,1491,1499,1855,1493,1492,1508,1499,1855,0.060337,-0.005232,-1.053295,-0.033831,0.000000,0.000000,0.000000,0.000000
1616313971,1497,1492,1491,1499,1855,1493,1492,1508,1499,1855,0.060337,-0.005232,-1.053295,-0.033831,0.000000,0.000000,0.000000,0.000000
1616414001,1497,1492,1491,1499,1855,1493,1492,1508,1499,1855,0.060337,-0.005232,-1.053295,-0.033831,0.000000,0.000000,0.000000,0.000000
1616514005,1497,1492,1490,1499,1855,1493,1492,1509,1499,1855,0.060337,-0.005232,-1.053295,-0.033831,0.000000,0.000000,0.000000,0.000000
1616614036,1497,1492,1491,1499,1856,1493,1492,1509,1499,1856,0.060337,-0.005232,-1.053295,-0.033831,0.000000,0.000000,0.000000,0.000000
1616714064,1497,1492,1491,1499,1855,1492,1492,1509,1499,1855,0.060337,-0.005232,-1.053295,-0.033831,0.000000,0.000000,0.000000,0.000000
1616814100,1497,1492,1490,1499,1855,1492,1492,1509,1499,1855,0.060337,-0.005232,-1.053295,-0.033831,0.000000,0.000000,0.000000,0.000000
1616914113,1497,1492,1491,1499,1855,1492,1492,1509,1499,1855,0.060337,-0.005232,-1.053295,-0.033831,0.000000,0.000000,0.000000,0.000000
1617014128,1497,1492,1491,1499,1855,1492,1492,1510,1499,1855,0.060337,-0.005232,-1.053295,-0.033831,0.000000,0.000000,0.000000,0.000000
1617114153,1497,1492,1491,1499,1855,1491,1492,1510,1499,1855,0.060337,-0.005232,-1.053295,-0.033831,0.000000,0.000000,0.000000,0.000000
1617214179,1497,1492,1491,1499,1855,1491,1492,1510,1499,1855,0.060337,-0.005232,-1.053295,-0.033831,0.000000,0.000000,0.000000,0.000000
1617314202,1497,1492,1491,1499,1855,1490,1492,1510,1499,1855,0.060337,-0.005232,-1.053295,-0.033831,0.000000,0.000000,0.000000,0.000000
1617414223,1497,1492,1491,1499,1855,1490,1492,1510,1499,1855,0.060337,-0.005232,-1.053295,-0.033831,0.000000,0.000000,0.000000,0.000000
1617514256,1497,1492,1491,1499,1855,1490,1492,1510,1499,1855,0.060337,-0.005232,-1.053295,-0.033831,0.000000,0.000000,0.000000,0.000000
1617614275,1497,1492,1491,1499,1855,1489,1492,1510,1499,1855,0.060337,-0.005232,-1.053295,-0.033831,0.000000,0.000000,0.000000,0.000000
1617714301,1497,1492,1490,1499,1855,1489,1492,1510,1499,1855,0.060337,-0.005232,-1.053295,-0.033831,0.000000,0.000000,0.000000,0.000000
1617814333,1497,1492,1491,1499,1855,1489,1492,1510,1499,1855,0.060337,-0.005232,-1.053295,-0.033831,0.000000,0.000000,0.000000,0.000000
1617914337,1497,1492,1491,1499,1855,1489,1492,1510,1499,1855,0.060337,-0.005232,-1.053295,-0.033831,0.000000,0.000000,0.000000,0.000000
1618014356,1497,1492,1491,1499,1855,1489,1492,1510,1499,1855,0.060337,-0.005232,-1.053295,-0.033831,0.000000,0.000000,0.000000,0.000000
1618114369,1497,1492,1491,1499,1855,1490,1492,1510,1499,1855,0.060337,-0.005232,-1.053295,-0.033831,0.000000,0.000000,0.000000,0.000000
1618214380,1497,1492,1491,1499,1855,1490,1492,1510,1499,1855,0.060337,-0.005232,-1.053295,-0.033831,0.000000,0.000000,0.000000,0.000000
1618314412,1497,1492,1491,1499,1855,1490,1492,1510,1499,1855,0.060337,-0.005232,-1.053295,-0.033831,0.000000,0.000000,0.000000,0.000000
1618414426,1497,1492,1491,1499,1855,1491,1492,1509,1499,1855,0.060337,-0.005232,-1.053295,-0.033831,0.000000,0.000000,0.000000,0.000000
1618514427,1497,1492,1491,1499,1855,1492,1492,1509,1499,1855,0.060337,-0.005232,-1.053295,-0.033831,0.000000,0.000000,0.000000,0.000000
1618614429,1497,1492,1491,1499,1855,1492,1492,1509,1499,1855,0.060337,-0.005232,-1.053295,-0.033831,0.000000,0.000000,0.000000,0.000000
1618714441,1497,1492,1490,1499,1855,1493,1492,1509,1499,1855,0.060337,-0.005232,-1.053295,-0.033831,0.000000,0.000000,0.000000,0.000000
1618814469,1497,1492,1490,1499,1855,1494,1492,1509,1499,1855,0.060337,-0.005232,-1.053295,-0.033831,0.000000,0.000000,0.000000,0.000000
1618914493,1497,1492,1491,1499,1855,1494,1492,1509,1499,1855,0.060337,-0.005232,-1.053295,-0.033831,0.000000,0.000000,0.000000,0.000000
1619014527,1497,1492,1491,1499,1855,1495,1492,1508,1499,1855,0.060337,-0.005232,-1.053295,-0.033831,0.000000,0.000000,0.000000,0.000000
1619114547,1497,1492,1490,1499,1855,1496,1492,1508,1499,1855,0.060337,-0.005232,-1.053295,-0.033831,0.000000,0.000000,0.000000,0.000000
1619214554,1497,1492,1491,1499,1855,1497,1492,1508,1499,1855,0.060337,-0.005232,-1.053295,-0.033831,0.000000,0.000000,0.000000,0.000000
1619314557,1497,1492,1491,1499,1855,1497,1492,1508,1499,1855,0.060337,-0.005232,-1.053295,-0.033831,0.000000,0.000000,0.000000,0.000000
1619414571,1497,1492,1491,1499,1855,1498,1492,1508,1499,1855,0.060337,-0.005232,-1.053295,-0.033831,0.000000,0.000000,0.000000,0.000000
1619514604,1497,1492,1492,1499,1855,1499,1492,1508,1499,1855,0.060337,-0.005232,-1.053295,-0.033831,0.000000,0.000000,0.000000,0.000000
1619614636,1497,1492,1491,1499,1855,1500,1492,1507,1499,1855,0.060337,-0.005232,-1.053295,-0.033831,0.000000,0.000000,0.000000,0.000000
1619714654,1497,1492,1491,1499,1856,1501,1492,1507,1499,1856,0.060337,-0.005232,-1.053295,-0.033831,0.000000,0.000000,0.000000,0.000000
1619814659,1497,1491,1491,1499,1855,1502,1491,1507,1499,1855,0.060337,-0.005232,-1.053295,-0.033831,0.000000,0.000000,0.000000,0.000000
1619914669,1496,1492,1491,1499,1855,1503,1492,1507,1499,1855,0.060337,-0.005232,-1.053295,-0.033831,0.000000,0.000000,0.000000,0.000000
1620014670,1497,1492,1490,1499,1855,1504,1492,1507,1499,1855,0.060337,-0.005232,-1.053295,-0.033831,0.000000,0.000000,0.000000,0.000000
1620114678,1497,1492,1491,1499,1855,1505,1492,1506,1499,1855,0.060337,-0.005232,-1.053295,-0.033831,0.000000,0.000000,0.000000,0.000000
1620214698,1497,1492,1490,1499,1855,1506,1492,1506,1499,1855,0.060337,-0.005232,-1.053295,-0.033831,0.000000,0.000000,0.000000,0.000000
1620314718,1497,1492,1491,1499,1855,1507,1492,1506,1499,1855,0.060337,-0.005232,-1.053295,-0.033831,0.000000,0.000000,0.000000,0.000000
1620414744,1497,1492,1490,1499,1855,1508,1492,1506,1499,1855,0.060337,-0.005232,-1.053295,-0.033831,0.000000,0.000000,0.000000,0.000000
1620514778,1497,1492,1491,1499,1855,1509,1492,1505,1499,1855,0.060337,-0.005232,-1.053295,-0.033831,0.000000,0.000000,0.000000,0.000000
1620614807,1497,1492,1491,1499,1855,1510,1492,1505,1499,1855,0.060337,-0.005232,-1.053295,-0.033831,0.000000,0.000000,0.000000,0.000000
1620714843,1497,1492,1491,1499,1855,1510,1492,1505,1499,1855,0.060337,-0.005232,-1.053295,-0.033831,0.000000,0.000000,0.000000,0.000000
1620814854,1497,1492,1491,1499,1855,1511,1492,1504,1499,1855,0.060337,-0.005232,-1.053295,-0.033831,0.000000,0.000000,0.000000,0.000000
1620914870,1497,1492,1490,1499,1855,1512,1492,1504,1499,1855,0.060337,-0.005232,-1.053295,-0.033831,0.000000,0.000000,0.000000,0.000000
1621014876,1497,1492,1491,1499,1855,1513,1492,1504,1499,1855,0.060337,-0.005232,-1.053295,-0.033831,0.000000,0.000000,0.000000,0.000000
1621114894,1497,1492,1491,1499,1855,1514,1492,1503,1499,1855,0.060337,-0.005232,-1.053295,-0.033831,0.000000,0.000000,0.000000,0.000000
1621214902,1497,1492,1492,1499,1855,1515,1492,1503,1499,1855,0.060337,-0.005232,-1.053295,-0.033831,0.000000,0.000000,0.000000,0.000000
1621314930,1497,1492,1491,1499,1855,1516,1492,1503,1499,1855,0.060337,-0.005232,-1.053295,-0.033831,0.000000,0.000000,0.000000,0.000000
1621414939,1497,1492,1491,1499,1855,1516,1492,1502,1499,1855,0.060337,-0.005232,-1.053295,-0.033831,0.000000,0.000000,0.000000,0.000000
1621514951,1497,1492,1491,1499,1855,1516,1492,1502,1499,1855,0.060337,-0.005232,-1.053295,-0.033831,0.000000,0.000000,0.000000,0.000000
1621614955,1497,1492,1491,1499,1855,1517,1492,1502,1499,1855,0.060337,-0.005232,-1.053295,-0.033831,0.000000,0.000000,0.000000,0.000000
1621714975,1497,1492,1491,1499,1855,1518,1492,1501,1499,1855,0.060337,-0.005232,-1.053295,-0.033831,0.000000,0.000000,0.000000,0.000000
1621814993,1497,1492,1491,1499,1855,1520,1492,1501,1499,1855,0.060337,-0.005232,-1.053295,-0.033831,0.000000,0.000000,0.000000,0.000000
1621915011,1497,1492,1491,1499,1855,1521,1492,1500,1499,1855,0.060337,-0.005232,-1.053295,-0.033831,0.000000,0.000000,0.000000,0.000000
1622015033,1497,1492,1491,1499,1855,1522,1492,1500,1499,1855,0.060337,-0.005232,-1.053295,-0.033831,0.000000,0.000000,0.000000,0.000000
1622115056,1497,1492,1491,1499,1855,1523,1492,1500,1499,1855,0.060337,-0.005232,-1.053295,-0.033831,0.000000,0.000000,0.000000,0.000000
1622215067,1497,1492,1491,1499,1855,1525,1492,1499,1499,1855,0.060337,-0.005232,-1.053295,-0.033831,0.000000,0.000000,0.000000,0.000000
1622315077,1497,1492,1491,1499,1855,1526,1492,1499,1499,1855,0.060337,-0.005232,-1.053295,-0.033831,0.000000,0.000000,0.000000,0.000000
1622415085,1497,1492,1491,1499,1855,1528,1492,1498,1499,1855,0.060337,-0.005232,-1.053295,-0.033831,0.000000,0.000000,0.000000,0.000000
1622515096,1497,1492,1491,1499,1855,1529,1492,1497,1499,1855,0.060337,-0.005232,-1.053295,-0.033831,0.000000,0.000000,0.000000,0.000000
1622615110,1497,1492,1491,1499,1855,1531,1492,1497,1499,1855,0.060337,-0.005232,-1.053295,-0.033831,0.000000,0.000000,0.000000,0.000000
1622715129,1497,1492,1490,1499,1855,1532,1492,1496,1499,1855,0.060337,-0.005232,-1.053295,-0.033831,0.000000,0.000000,0.000000,0.000000
1622815147,1497,1492,1491,1499,1855,1534,1492,1496,1499,1855,0.060337,-0.005232,-1.053295,-0.033831,0.000000,0.000000,0.000000,0.000000
1622915174,1497,1492,1491,1499,1855,1535,1492,1495,1499,1855,0.060337,-0.005232,-1.053295,-0.033831,0.000000,0.000000,0.000000,0.000000
1623015176,1497,1492,1491,1499,1854,1537,1492,1494,1499,1854,0.060337,-0.005232,-1.053295,-0.033831,0.000000,0.000000,0.000000,0.000000
1623115181,1497,1492,1491,1499,1855,1538,1492,1493,1499,1855,0.060337,-0.005232,-1.053295,-0.033831,0.000000,0.000000,0.000000,0.000000
1623215206,1497,1492,1490,1499,1855,1540,1492,1493,1499,1855,0.060337,-0.005232,-1.053295,-0.033831,0.000000,0.000000,0.000000,0.000000
1623315215,1497,1492,1491,1499,1855,1541,1492,1492,1499,1855,0.060337,-0.005232,-1.053295,-0.033831,0.000000,0.000000,0.000000,0.000000
1623415265,1496,1492,1491,1499,1855,1543,1492,1491,1499,1855,0.060337,-0.005232,-1.053295,-0.033831,0.000000,0.000000,0.000000,0.000000
1623515288,1497,1492,1491,1499,1855,1545,1492,1490,1499,1855,0.060337,-0.005232,-1.053295,-0.033831,0.000000,0.000000,0.000000,0.000000
1623615313,1497,1492,1490,1499,1855,1546,1492,1490,1499,1855,0.060337,-0.005232,-1.053295,-0.033831,0.000000,0.000000,0.000000,0.000000
1623715318,1496,1492,1491,1499,1855,1548,1492,1489,1499,1855,0.060337,-0.005232,-1.053295,-0.033831,0.000000,0.000000,0.000000,0.000000
1623815327,1497,1492,1491,1499,1855,1550,1492,1489,1499,1855,0.060337,-0.005232,-1.053295,-0.033831,0.000000,0.000000,0.000000,0.000000
1623915358,1497,1492,1491,1499,1855,1552,1492,1488,1499,1855,0.060337,-0.005232,-1.053295,-0.033831,0.000000,0.000000,0.000000,0.000000
1624015375,1497,1492,1491,1499,1855,1553,1492,1487,1499,1855,0.060337,-0.005232,-1.053295,-0.033831,0.000000,0.000000,0.000000,0.000000
1624115403,1497,1492,1491,1499,1855,1555,1492,1486,1499,1855,0.060337,-0.005232,-1.053295,-0.033831,0.000000,0.000000,0.000000,0.000000
1624215450,1497,1492,1491,1499,1855,1556,1492,1485,1499,1855,0.060337,-0.005232,-1.053295,-0.033831,0.000000,0.000000,0.000000,0.000000
1624315485,1497,1492,1491,1499,1855,1557,1492,1484,1499,1855,0.060337,-0.005232,-1.053295,-0.033831,0.000000,0.000000,0.000000,0.000000
1624415493,1497,1492,1492,1499,1855,1558,1492,1482,1499,1855,0.060337,-0.005232,-1.053295,-0.033831,0.000000,0.000000,0.000000,0.000000
1624515524,1497,1492,1491,1499,1855,1559,1492,1481,1499,1855,0.060337,-0.005232,-1.053295,-0.033831,0.000000,0.000000,0.000000,0.000000
1624615547,1497,1492,1492,1499,1855,1560,1492,1480,1499,1855,0.060337,-0.005232,-1.053295,-0.033831,0.000000,0.000000,0.000000,0.000000
1624715563,1496,1492,1492,1499,1855,1561,1492,1479,1499,1855,0.060337,-0.005232,-1.053295,-0.033831,0.000000,0.000000,0.000000,0.000000
1624815596,1497,1492,1491,1499,1855,1561,1492,1478,1499,1855,0.060337,-0.005232,-1.053295,-0.033831,0.000000,0.000000,0.000000,0.000000
1624915623,1497,1492,1491,1499,1855,1562,1492,1476,1499,1855,0.060337,-0.005232,-1.053295,-0.033831,0.000000,0.000000,0.000000,0.000000
1625015634,1497,1492,1492,1499,1181,1497,1492,1492,1499,1181,-0.000001,0.000000,0.000000,0.000000,0.000000,0.000000,-0.000006,0.000000
1625115646,1497,1492,1491,1499,1181,1497,1492,1491,1499,1181,-0.000001,0.000000,0.000000,0.000000,0.000000,0.000000,-0.000006,0.000000
1625215663,1497,1494,1492,1499,1181,1497,1494,1492,1499,1181,-0.000001,0.000000,0.000000,0.000000,0.000000,0.000000,-0.000006,0.000000
1625315674,1497,1492,1492,1499,1182,1497,1492,1492,1499,1182,-0.000001,0.000000,0.000000,0.000000,0.000000,0.000000,-0.000006,0.000000
1625415681,1497,1492,1492,1499,1182,1497,1492,1492,1499,1182,-0.000001,0.000000,0.000000,0.000000,0.000000,0.000000,-0.000006,0.000000
1625515710,1482,1492,1492,1492,1182,1482,1492,1492,1492,1182,-0.000001,0.000000,0.000000,0.000000,0.000000,0.000000,-0.000006,0.000000
1625615713,1457,1492,1492,1491,1181,1457,1492,1492,1491,1181,-0.000001,0.000000,0.000000,0.000000,0.000000,0.000000,-0.000006,0.000000
1625715715,1458,1492,1492,1491,1182,1458,1492,1492,1491,1182,-0.000001,0.000000,0.000000,0.000000,0.000000,0.000000,-0.000006,0.000000
1625815734,1457,1492,1492,1490,1181,1457,1492,1492,1490,1181,-0.000001,0.000000,0.000000,0.000000,0.000000,0.000000,-0.000006,0.000000
1625915750,1457,1492,1492,1493,1181,1457,1492,1492,1493,1181,-0.000001,0.000000,0.000000,0.000000,0.000000,0.000000,-0.000006,0.000000
1626015756,1459,1492,1492,1493,1182,1459,1492,1492,1493,1182,-0.000001,0.000000,0.000000,0.000000,0.000000,0.000000,-0.000006,0.000000
1626115761,1459,1492,1492,1488,1182,1459,1492,1492,1488,1182,-0.000001,0.000000,0.000000,0.000000,0.000000,0.000000,-0.000006,0.000000
1626215795,1456,1492,1491,1488,1181,1456,1492,1491,1488,1181,-0.000001,0.000000,0.000000,0.000000,0.000000,0.000000,-0.000006,0.000000
1626315827,1442,1492,1492,1486,1181,1442,1492,1492,1486,1181,-0.000001,0.000000,0.000000,0.000000,0.000000,0.000000,-0.000006,0.000000
1626415835,1420,1492,1492,1479,1182,1420,1492,1492,1479,1182,-0.000001,0.000000,0.000000,0.000000,0.000000,0.000000,-0.000006,0.000000
1626515840,1407,1492,1492,1464,1181,1407,1492,1492,1464,1181,-0.000001,0.000000,0.000000,0.000000,0.000000,0.000000,-0.000006,0.000000
1626615841,1404,1492,1492,1462,1181,1404,1492,1492,1462,1181,-0.000001,0.000000,0.000000,0.000000,0.000000,0.000000,-0.000006,0.000000
1626715870,1393,1492,1491,1461,1181,1393,1492,1491,1461,1181,-0.000001,0.000000,0.000000,0.000000,0.000000,0.000000,-0.000006,0.000000
1626815901,1387,1492,1491,1456,1181,1387,1492,1491,1456,1181,-0.000001,0.000000,0.000000,0.000000,0.000000,0.000000,-0.000006,0.000000
1626915934,1379,1492,1492,1447,1181,1379,1492,1492,1447,1181,-0.000001,0.000000,0.000000,0.000000,0.000000,0.000000,-0.000006,0.000000
1627015960,1372,1492,1492,1446,1181,1372,1492,1492,1446,1181,-0.000001,0.000000,0.000000,0.000000,0.000000,0.000000,-0.000006,0.000000
1627115974,1360,1492,1491,1440,1181,1360,1492,1491,1440,1181,-0.000001,0.000000,0.000000,0.000000,0.000000,0.000000,-0.000006,0.000000
1627216009,1332,1492,1492,1421,1181,1332,1492,1492,1421,1181,-0.000001,0.000000,0.000000,0.000000,0.000000,0.000000,-0.000006,0.000000
1627316034,1302,1489,1492,1397,1181,1302,1489,1492,1397,1181,-0.000001,0.000000,0.000000,0.000000,0.000000,0.000000,-0.000006,0.000000
1627416064,1253,1492,1489,1366,1182,1253,1492,1489,1366,1182,-0.000001,0.000000,0.000000,0.000000,0.000000,0.000000,-0.000006,0.000000
1627516096,1201,1495,1431,1349,1181,1201,1495,1431,1349,1181,-0.000001,0.000000,0.000000,0.000000,0.000000,0.000000,-0.000006,0.000000
1627616129,1102,1534,1368,1292,1181,1102,1534,1368,1292,1181,-0.000001,0.000000,0.000000,0.000000,0.000000,0.000000,-0.000006,0.000000
1627716152,1061,1596,1290,1247,1181,1061,1596,1290,1247,1181,-0.000001,0.000000,0.000000,0.000000,0.000000,0.000000,-0.000006,0.000000
1627816184,1061,1695,1179,1194,1181,1061,1695,1179,1194,1181,-0.000001,0.000000,0.000000,0.000000,0.000000,0.000000,-0.000006,0.000000
1627916203,1061,1789,1074,1127,1181,1061,1789,1074,1127,1181,-0.000001,0.000000,0.000000,0.000000,0.000000,0.000000,-0.000006,0.000000
1628016220,1060,1875,1074,1096,1181,1060,1875,1074,1096,1181,-0.000001,0.000000,0.000000,0.000000,0.000000,0.000000,-0.000006,0.000000
1628116234,1061,1915,1074,1090,1181,1061,1915,1074,1090,1181,-0.000001,0.000000,0.000000,0.000000,0.000000,0.000000,-0.000006,0.000000
1628216245,1061,1917,1074,1082,1181,1061,1917,1074,1082,1181,-0.000001,0.000000,0.000000,0.000000,0.000000,0.000000,-0.000006,0.000000
1628316261,1061,1919,1074,1082,1182,1061,1919,1074,1082,1182,-0.000001,0.000000,0.000000,0.000000,0.000000,0.000000,-0.000006,0.000000
1628416282,1061,1920,1074,1082,1181,1061,1920,1074,1082,1181,-0.000001,0.000000,0.000000,0.000000,0.000000,0.000000,-0.000006,0.000000
1628516302,1061,1919,1074,1082,1181,1061,1919,1074,1082,1181,-0.000001,0.000000,0.000000,0.000000,0.000000,0.000000,-0.000006,0.000000
1628616314,1061,1920,1074,1085,1181,1061,1920,1074,1085,1181,-0.000001,0.000000,0.000000,0.000000,0.000000,0.000000,-0.000006,0.000000
1628716333,1061,1920,1074,1082,1182,1061,1920,1074,1082,1182,-0.000001,0.000000,0.000000,0.000000,0.000000,0.000000,-0.000006,0.000000
1628816364,1061,1920,1074,1082,1181,1061,1920,1074,1082,1181,-0.000001,0.000000,0.000000,0.000000,0.000000,0.000000,-0.000006,0.000000
1628916367,1061,1920,1074,1082,1181,1061,1920,1074,1082,1181,-0.000001,0.000000,0.000000,0.000000,0.000000,0.000000,-0.000006,0.000000
1629016392,1061,1919,1074,1084,1181,1061,1919,1074,1084,1181,-0.000001,0.000000,0.000000,0.000000,0.000000,0.000000,-0.000006,0.000000
1629116404,1061,1920,1074,1082,1181,1061,1920,1074,1082,1181,-0.000001,0.000000,0.000000,0.000000,0.000000,0.000000,-0.000006,0.000000
1629216433,1061,1919,1074,1084,1181,1061,1919,1074,1084,1181,-0.000001,0.000000,0.000000,0.000000,0.000000,0.000000,-0.000006,0.000000
1629316471,1061,1919,1074,1082,1181,1061,1919,1074,1082,1181,-0.000001,0.000000,0.000000,0.000000,0.000000,0.000000,-0.000006,0.000000
1629416480,1061,1920,1074,1082,1182,1061,1920,1074,1082,1182,-0.000001,0.000000,0.000000,0.000000,0.000000,0.000000,-0.000006,0.000000
1629516499,1061,1920,1074,1082,1181,1061,1920,1074,1082,1181,-0.000001,0.000000,0.000000,0.000000,0.000000,0.000000,-0.000006,0.000000
1629616504,1068,1888,1086,1096,1181,1068,1888,1086,1096,1181,-0.000001,0.000000,0.000000,0.000000,0.000000,0.000000,-0.000006,0.000000
1629716520,1249,1579,1373,1261,1181,1249,1579,1373,1261,1181,-0.000001,0.000000,0.000000,0.000000,0.000000,0.000000,-0.000006,0.000000
1629816556,1490,1492,1492,1412,1181,1490,1492,1492,1412,1181,-0.000001,0.000000,0.000000,0.000000,0.000000,0.000000,-0.000006,0.000000
1629916570,1497,1492,1491,1490,1181,1497,1492,1491,1490,1181,-0.000001,0.000000,0.000000,0.000000,0.000000,0.000000,-0.000006,0.000000
1630016582,1497,1492,1491,1498,1181,1497,1492,1491,1498,1181,-0.000001,0.000000,0.000000,0.000000,0.000000,0.000000,-0.000006,0.000000
1630116586,1497,1492,1491,1498,1181,1497,1492,1491,1498,1181,-0.000001,0.000000,0.000000,0.000000,0.000000,0.000000,-0.000006,0.000000
1630216619,1497,1491,1492,1498,1182,1497,1491,1492,1498,1182,-0.000001,0.000000,0.000000,0.000000,0.000000,0.000000,-0.000006,0.000000
1630316627,1497,1491,1492,1498,1182,1497,1491,1492,1498,1182,-0.000001,0.000000,0.000000,0.000000,0.000000,0.000000,-0.000006,0.000000
1630416630,1497,1492,1492,1498,1182,1497,1492,1492,1498,1182,-0.000001,0.000000,0.000000,0.000000,0.000000,0.000000,-0.000006,0.000000
1630516662,1497,1492,1492,1498,1181,1497,1492,1492,1498,1181,-0.000001,0.000000,0.000000,0.000000,0.000000,0.000000,-0.000006,0.000000
1630616683,1497,1492,1491,1498,1182,1497,1492,1491,1498,1182,-0.000001,0.000000,0.000000,0.000000,0.000000,0.000000,-0.000006,0.000000
1630716718,1497,1492,1491,1498,1182,1497,1492,1491,1498,1182,-0.000001,0.000000,0.000000,0.000000,0.000000,0.000000,-0.000006,0.000000
1630816750,1497,1492,1492,1498,1181,1497,1492,1492,1498,1181,-0.000001,0.000000,0.000000,0.000000,0.000000,0.000000,-0.000006,0.000000
1630916774,1497,1491,1491,1498,1182,1497,1491,1491,1498,1182,-0.000001,0.000000,0.000000,0.000000,0.000000,0.000000,-0.000006,0.000000
1631016788,1497,1492,1491,1498,1181,1497,1492,1491,1498,1181,-0.000001,0.000000,0.000000,0.000000,0.000000,0.000000,-0.000006,0.000000
1631116822,1497,1492,1491,1498,1182,1497,1492,1491,1498,1182,-0.000001,0.000000,0.000000,0.000000,0.000000,0.000000,-0.000006,0.000000
1631216838,1497,1492,1492,1498,1181,1497,1492,1492,1498,1181,-0.000001,0.000000,0.000000,0.000000,0.000000,0.000000,-0.000006,0.000000
1631316859,1497,1492,1490,1498,1181,1497,1492,1490,1498,1181,-0.000001,0.000000,0.000000,0.000000,0.000000,0.000000,-0.000006,0.000000
1631416892,1497,1492,1492,1498,1182,1497,1492,1492,1498,1182,-0.000001,0.000000,0.000000,0.000000,0.000000,0.000000,-0.000006,0.000000
1631516905,1497,1492,1491,1498,1182,1497,1492,1491,1498,1182,-0.000001,0.000000,0.000000,0.000000,0.000000,0.000000,-0.000006,0.000000
1631616928,1497,1492,1491,1498,1182,1497,1492,1491,1498,1182,-0.000001,0.000000,0.000000,0.000000,0.000000,0.000000,-0.000006,0.000000
1631716944,1497,1492,1491,1498,1181,1497,1492,1491,1498,1181,-0.000001,0.000000,0.000000,0.000000,0.000000,0.000000,-0.000006,0.000000
1631816950,1497,1492,1492,1498,1181,1497,1492,1492,1498,1181,-0.000001,0.000000,0.000000,0.000000,0.000000,0.000000,-0.000006,0.000000
1631916952,1497,1492,1492,1498,1182,1497,1492,1492,1498,1182,-0.000001,0.000000,0.000000,0.000000,0.000000,0.000000,-0.000006,0.000000
1632016967,1496,1492,1490,1498,1181,1496,1492,1490,1498,1181,-0.000001,0.000000,0.000000,0.000000,0.000000,0.000000,-0.000006,0.000000
1632116998,1497,1492,1491,1498,1181,1497,1492,1491,1498,1181,-0.000001,0.000000,0.000000,0.000000,0.000000,0.000000,-0.000006,0.000000
1632217033,1497,1492,1492,1498,1181,1497,1492,1492,1498,1181,-0.000001,0.000000,0.000000,0.000000,0.000000,0.000000,-0.000006,0.000000
1632317040,1496,1492,1490,1498,1181,1496,1492,1490,1498,1181,-0.000001,0.000000,0.000000,0.000000,0.000000,0.000000,-0.000006,0.000000
1632417070,1496,1492,1492,1498,1182,1496,1492,1492,1498,1182,-0.000001,0.000000,0.000000,0.000000,0.000000,0.000000,-0.000006,0.000000
1632517079,1496,1492,1492,1498,1181,1496,1492,1492,1498,1181,-0.000001,0.000000,0.000000,0.000000,0.000000,0.000000,-0.000006,0.000000
1632617090,1497,1492,1492,1498,1181,1497,1492,1492,1498,1181,-0.000001,0.000000,0.000000,0.000000,0.000000,0.000000,-0.000006,0.000000
1632717095,1497,1492,1492,1498,1181,1497,1492,1492,1498,1181,-0.000001,0.000000,0.000000,0.000000,0.000000,0.000000,-0.000006,0.000000
1632817123,1497,1492,1492,1498,1182,1497,1492,1492,1498,1182,-0.000001,0.000000,0.000000,0.000000,0.000000,0.000000,-0.000006,0.000000
1632917133,1497,1492,1492,1498,1182,1497,1492,1492,1498,1182,-0.000001,0.000000,0.000000,0.000000,0.000000,0.000000,-0.000006,0.000000
1633017164,1497,1492,1492,1498,1181,1497,1492,1492,1498,1181,-0.000001,0.000000,0.000000,0.000000,0.000000,0.000000,-0.000006,0.000000
1633117188,1497,1492,1491,1498,1181,1497,1492,1491,1498,1181,-0.000001,0.000000,0.000000,0.000000,0.000000,0.000000,-0.000006,0.000000
1633217205,1497,1492,1492,1498,1181,1497,1492,1492,1498,1181,-0.000001,0.000000,0.000000,0.000000,0.000000,0.000000,-0.000006,0.000000
1633317233,1497,1492,1492,1497,1181,1497,1492,1492,1497,1181,-0.000001,0.000000,0.000000,0.000000,0.000000,0.000000,-0.000006,0.000000
1633417265,1497,1492,1492,1498,1181,1497,1492,1492,1498,1181,-0.000001,0.000000,0.000000,0.000000,0.000000,0.000000,-0.000006,0.000000
1633517281,1497,1492,1490,1498,1182,1497,1492,1490,1498,1182,-0.000001,0.000000,0.000000,0.000000,0.000000,0.000000,-0.000006,0.000000
1633617302,1497,1492,1492,1498,1182,1497,1492,1492,1498,1182,-0.000001,0.000000,0.000000,0.000000,0.000000,0.000000,-0.000006,0.000000
1633717324,1497,1492,1492,1498,1181,1497,1492,1492,1498,1181,-0.000001,0.000000,0.000000,0.000000,0.000000,0.000000,-0.000006,0.000000
1633817326,1497,1492,1491,1498,1181,1497,1492,1491,1498,1181,-0.000001,0.000000,0.000000,0.000000,0.000000,0.000000,-0.000006,0.000000
1633917346,1497,1492,1492,1498,1181,1497,1492,1492,1498,1181,-0.000001,0.000000,0.000000,0.000000,0.000000,0.000000,-0.000006,0.000000
1634017358,1496,1492,1492,1497,1181,1496,1492,1492,1497,1181,-0.000001,0.000000,0.000000,0.000000,0.000000,0.000000,-0.000006,0.000000
1634117383,1497,1491,1492,1498,1182,1497,1491,1492,1498,1182,-0.000001,0.000000,0.000000,0.000000,0.000000,0.000000,-0.000006,0.000000
1634217385,1496,1492,1492,1498,1182,1496,1492,1492,1498,1182,-0.000001,0.000000,0.000000,0.000000,0.000000,0.000000,-0.000006,0.000000
1634317417,1496,1492,1491,1498,1181,1496,1492,1491,1498,1181,-0.000001,0.000000,0.000000,0.000000,0.000000,0.000000,-0.000006,0.000000
1634417446,1497,1492,1492,1498,1181,1497,1492,1492,1498,1181,-0.000001,0.000000,0.000000,0.000000,0.000000,0.000000,-0.000006,0.000000
1634517450,1497,1492,1492,1498,1181,1497,1492,1492,1498,1181,-0.000001,0.000000,0.000000,0.000000,0.000000,0.000000,-0.000006,0.000000
1634617474,1497,1491,1492,1496,1181,1497,1491,1492,1496,1181,-0.000001,0.000000,0.000000,0.000000,0.000000,0.000000,-0.000006,0.000000
1634717509,1497,1492,1492,1497,1181,1497,1492,1492,1497,1181,-0.000001,0.000000,0.000000,0.000000,0.000000,0.000000,-0.000006,0.000000
1634817538,1496,1492,1491,1498,1181,1496,1492,1491,1498,1181,-0.000001,0.000000,0.000000,0.000000,0.000000,0.000000,-0.000006,0.000000
1634917546,1497,1492,1492,1498,1181,1497,1492,1492,1498,1181,-0.000001,0.000000,0.000000,0.000000,0.000000,0.000000,-0.000006,0.000000
1635017559,1497,1492,1492,1498,1181,1497,1492,1492,1498,1181,-0.000001,0.000000,0.000000,0.000000,0.000000,0.000000,-0.000006,0.000000
1635117576,1497,1492,1491,1497,1182,1497,1492,1491,1497,1182,-0.000001,0.000000,0.000000,0.000000,0.000000,0.000000,-0.000006,0.000000
1635217609,1497,1492,1490,1497,1182,1497,1492,1490,1497,1182,-0.000001,0.000000,0.000000,0.000000,0.000000,0.000000,-0.000006,0.000000
1635317634,1497,1492,1492,1497,1181,1497,1492,1492,1497,1181,-0.000001,0.000000,0.000000,0.000000,0.000000,0.000000,-0.000006,0.000000
1635417654,1497,1492,1492,1496,1181,1497,1492,1492,1496,1181,-0.000001,0.000000,0.000000,0.000000,0.000000,0.000000,-0.000006,0.000000
1635517661,1497,1492,1491,1498,1181,1497,1492,1491,1498,1181,-0.000001,0.000000,0.000000,0.000000,0.000000,0.000000,-0.000006,0.000000
1635617676,1497,1492,1492,1497,1181,1497,1492,1492,1497,1181,-0.000001,0.000000,0.000000,0.000000,0.000000,0.000000,-0.000006,0.000000
1635717700,1497,1492,1492,1497,1182,1497,1492,1492,1497,1182,-0.000001,0.000000,0.000000,0.000000,0.000000,0.000000,-0.000006,0.000000
1635817742,1497,1492,1492,1498,1181,1497,1492,1492,1498,1181,-0.000001,0.000000,0.000000,0.000000,0.000000,0.000000,-0.000006,0.000000
1635917753,1497,1492,1492,1497,1182,1497,1492,1492,1497,1182,-0.000001,0.000000,0.000000,0.000000,0.000000,0.000000,-0.000006,0.000000
1636017780,1497,1492,1492,1497,1181,1497,1492,1492,1497,1181,-0.000001,0.000000,0.000000,0.000000,0.000000,0.000000,-0.000006,0.000000
1636117805,1497,1492,1492,1497,1181,1497,1492,1492,1497,1181,-0.000001,0.000000,0.000000,0.000000,0.000000,0.000000,-0.000006,0.000000
1636217819,1497,1492,1492,1498,1182,1497,1492,1492,1498,1182,-0.000001,0.000000,0.000000,0.000000,0.000000,0.000000,-0.000006,0.000000
1636317853,1497,1492,1492,1497,1181,1497,1492,1492,1497,1181,-0.000001,0.000000,0.000000,0.000000,0.000000,0.000000,-0.000006,0.000000
1636417868,1497,1492,1492,1498,1182,1497,1492,1492,1498,1182,-0.000001,0.000000,0.000000,0.000000,0.000000,0.000000,-0.000006,0.000000
1636517882,1497,1491,1492,1497,1182,1497,1491,1492,1497,1182,-0.000001,0.000000,0.000000,0.000000,0.000000,0.000000,-0.000006,0.000000
1636617897,1497,1492,1490,1497,1181,1497,1492,1490,1497,1181,-0.000001,0.000000,0.000000,0.000000,0.000000,0.000000,-0.000006,0.000000
1636717920,1497,1492,1491,1497,1181,1497,1492,1491,1497,1181,-0.000001,0.000000,0.000000,0.000000,0.000000,0.000000,-0.000006,0.000000
1636817961,1497,1492,1492,1497,1182,1497,1492,1492,1497,1182,-0.000001,0.000000,0.000000,0.000000,0.000000,0.000000,-0.000006,0.000000
1636917979,1497,1492,1492,1496,1182,1497,1492,1492,1496,1182,-0.000001,0.000000,0.000000,0.000000,0.000000,0.000000,-0.000006,0.000000
1637017986,1497,1492,1492,1498,1182,1497,1492,1492,1498,1182,-0.000001,0.000000,0.000000,0.000000,0.000000,0.000000,-0.000006,0.000000
1637117988,1497,1492,1492,1497,1181,1497,1492,1492,1497,1181,-0.000001,0.000000,0.000000,0.000000,0.000000,0.000000,-0.000006,0.000000
1637218001,1497,1492,1492,1497,1181,1497,1492,1492,1497,1181,-0.000001,0.000000,0.000000,0.000000,0.000000,0.000000,-0.000006,0.000000
1637318038,1497,1491,1492,1496,1181,1497,1491,1492,1496,1181,-0.000001,0.000000,0.000000,0.000000,0.000000,0.000000,-0.000006,0.000000
1637418067,1497,1492,1491,1498,1181,1497,1492,1491,1498,1181,-0.000001,0.000000,0.000000,0.000000,0.000000,0.000000,-0.000006,0.000000
1637518090,1497,1492,1492,1497,1182,1497,1492,1492,1497,1182,-0.000001,0.000000,0.000000,0.000000,0.000000,0.000000,-0.000006,0.000000
1637618106,1497,1492,1492,1497,1181,1497,1492,1492,1497,1181,-0.000001,0.000000,0.000000,0.000000,0.000000,0.000000,-0.000006,0.000000
1637718132,1496,1492,1492,1496,1182,1496,1492,1492,1496,1182,-0.000001,0.000000,0.000000,0.000000,0.000000,0.000000,-0.000006,0.000000
1637818135,1496,1492,1491,1498,1181,1496,1492,1491,1498,1181,-0.000001,0.000000,0.000000,0.000000,0.000000,0.000000,-0.000006,0.000000
1637918138,1497,1492,1492,1497,1181,1497,1492,1492,1497,1181,-0.000001,0.000000,0.000000,0.000000,0.000000,0.000000,-0.000006,0.000000
1638018147,1497,1492,1492,1498,1182,1497,1492,1492,1498,1182,-0.000001,0.000000,0.000000,0.000000,0.000000,0.000000,-0.000006,0.000000
1638118163,1497,1492,1492,1497,1181,1497,1492,1492,1497,1181,-0.000001,0.000000,0.000000,0.000000,0.000000,0.000000,-0.000006,0.000000
1638218198,1497,1492,1492,1498,1181,1497,1492,1492,1498,1181,-0.000001,0.000000,0.000000,0.000000,0.000000,0.000000,-0.000006,0.000000
1638318221,1497,1492,1492,1497,1181,1497,1492,1492,1497,1181,-0.000001,0.000000,0.000000,0.000000,0.000000,0.000000,-0.000006,0.000000
1638418233,1497,1491,1492,1498,1182,1497,1491,1492,1498,1182,-0.000001,0.000000,0.000000,0.000000,0.000000,0.000000,-0.000006,0.000000
1638518258,1497,1492,1491,1496,1181,1497,1492,1491,1496,1181,-0.000001,0.000000,0.000000,0.000000,0.000000,0.000000,-0.000006,0.000000
1638618262,1497,1492,1492,1497,1182,1497,1492,1492,1497,1182,-0.000001,0.000000,0.000000,0.000000,0.000000,0.000000,-0.000006,0.000000
1638718296,1497,1492,1491,1498,1181,1497,1492,1491,1498,1181,-0.000001,0.000000,0.000000,0.000000,0.000000,0.000000,-0.000006,0.000000
1638818315,1497,1492,1492,1497,1182,1497,1492,1492,1497,1182,-0.000001,0.000000,0.000000,0.000000,0.000000,0.000000,-0.000006,0.000000
1638918325,1497,1492,1492,1498,1181,1497,1492,1492,1498,1181,-0.000001,0.000000,0.000000,0.000000,0.000000,0.000000,-0.000006,0.000000
1639018354,1497,1491,1492,1497,1182,1497,1491,1492,1497,1182,-0.000001,0.000000,0.000000,0.000000,0.000000,0.000000,-0.000006,0.000000
1639118363,1496,1491,1491,1496,1181,1496,1491,1491,1496,1181,-0.000001,0.000000,0.000000,0.000000,0.000000,0.000000,-0.000006,0.000000
1639218384,1496,1492,1492,1498,1182,1496,1492,1492,1498,1182,-0.000001,0.000000,0.000000,0.000000,0.000000,0.000000,-0.000006,0.000000
1639318406,1496,1491,1492,1496,1181,1496,1491,1492,1496,1181,-0.000001,0.000000,0.000000,0.000000,0.000000,0.000000,-0.000006,0.000000
1639418416,1496,1492,1491,1496,1181,1496,1492,1491,1496,1181,-0.000001,0.000000,0.000000,0.000000,0.000000,0.000000,-0.000006,0.000000
1639518428,1497,1492,1492,1496,1182,1497,1492,1492,1496,1182,-0.000001,0.000000,0.000000,0.000000,0.000000,0.000000,-0.000006,0.000000
1639618458,1497,1492,1492,1498,1181,1497,1492,1492,1498,1181,-0.000001,0.000000,0.000000,0.000000,0.000000,0.000000,-0.000006,0.000000
1639718471,1497,1492,1492,1496,1181,1497,1492,1492,1496,1181,-0.000001,0.000000,0.000000,0.000000,0.000000,0.000000,-0.000006,0.000000
1639818497,1496,1491,1492,1496,1181,1496,1491,1492,1496,1181,-0.000001,0.000000,0.000000,0.000000,0.000000,0.000000,-0.000006,0.000000
1639918509,1497,1492,1492,1498,1181,1497,1492,1492,1498,1181,-0.000001,0.000000,0.000000,0.000000,0.000000,0.000000,-0.000006,0.000000
1640018545,1497,1492,1492,1497,1181,1497,1492,1492,1497,1181,-0.000001,0.000000,0.000000,0.000000,0.000000,0.000000,-0.000006,0.000000
1640118560,1496,1491,1492,1496,1181,1496,1491,1492,1496,1181,-0.000001,0.000000,0.000000,0.000000,0.000000,0.000000,-0.000006,0.000000
1640218578,1497,1492,1492,1497,1181,1497,1492,1492,1497,1181,-0.000001,0.000000,0.000000,0.000000,0.000000,0.000000,-0.000006,0.000000
1640318602,1496,1492,1492,1496,1181,1496,1492,1492,1496,1181,-0.000001,0.000000,0.000000,0.000000,0.000000,0.000000,-0.000006,0.000000
1640418616,1496,1492,1492,1496,1181,1496,1492,1492,1496,1181,-0.000001,0.000000,0.000000,0.000000,0.000000,0.000000,-0.000006,0.000000
1640518644,1497,1492,1492,1497,1181,1497,1492,1492,1497,1181,-0.000001,0.000000,0.000000,0.000000,0.000000,0.000000,-0.000006,0.000000
1640618645,1497,1492,1491,1496,1181,1497,1492,1491,1496,1181,-0.000001,0.000000,0.000000,0.000000,0.000000,0.000000,-0.000006,0.000000
1640718669,1496,1492,1491,1496,1181,1496,1492,1491,1496,1181,-0.000001,0.000000,0.000000,0.000000,0.000000,0.000000,-0.000006,0.000000
1640818672,1496,1492,1491,1496,1181,1496,1492,1491,1496,1181,-0.000001,0.000000,0.000000,0.000000,0.000000,0.000000,-0.000006,0.000000
1640918700,1496,1491,1492,1496,1181,1496,1491,1492,1496,1181,-0.000001,0.000000,0.000000,0.000000,0.000000,0.000000,-0.000006,0.000000
1641018716,1496,1491,1492,1496,1181,1496,1491,1492,1496,1181,-0.000001,0.000000,0.000000,0.000000,0.000000,0.000000,-0.000006,0.000000
1641118739,1497,1492,1492,1497,1181,1497,1492,1492,1497,1181,-0.000001,0.000000,0.000000,0.000000,0.000000,0.000000,-0.000006,0.000000
1641218766,1496,1492,1492,1496,1181,1496,1492,1492,1496,1181,-0.000001,0.000000,0.000000,0.000000,0.000000,0.000000,-0.000006,0.000000
1641318806,1496,1492,1492,1496,1181,1496,1492,1492,1496,1181,-0.000001,0.000000,0.000000,0.000000,0.000000,0.000000,-0.000006,0.000000
